…
4.  **Coercion functions**: `tk_tbl`, `tk_ts`, `tk_xts`, `tk_zoo`, and `tk_zooreg` coerce time-based tibbles `tbl` to and from each of the main time-series data types `xts`, `zoo`, `zooreg`, `ts`, maintaining the time-based index.

Getting started
---------------

Load libraries and start with some time series data

``` r
library(tidyquant)
library(timekit)

FB_tbl <- FANG %>%
    filter(symbol == "FB")
FB_tbl
#> # A tibble: 1,008 × 8
#>    symbol       date  open  high   low close    volume adjusted
#>     <chr>     <date> <dbl> <dbl> <dbl> <dbl>     <dbl>    <dbl>
#> 1      FB 2013-01-02 27.44 28.18 27.42 28.00  69846400    28.00
#> 2      FB 2013-01-03 27.88 28.47 27.59 27.77  63140600    27.77
#> 3      FB 2013-01-04 28.01 28.93 27.83 28.76  72715400    28.76
#> 4      FB 2013-01-07 28.69 29.79 28.65 29.42  83781800    29.42
#> 5      FB 2013-01-08 29.51 29.60 28.86 29.06  45871300    29.06
#> 6      FB 2013-01-09 29.67 30.60 29.49 30.59 104787700    30.59
#> 7      FB 2013-01-10 30.60 31.45 30.28 31.30  95316400    31.30
#> 8      FB 2013-01-11 31.28 31.96 31.10 31.72  89598000    31.72
#> 9      FB 2013-01-14 32.08 32.21 30.62 30.95  98892800    30.95
#> 10     FB 2013-01-15 30.64 31.71 29.88 30.10 173242600    30.10
#> # ... with 998 more rows
```

Understand and work with a time series index
--------------------------------------------

Get the timeseries index

``` r
idx <- tk_index(FB_tbl)
```

Get the time series signature from the index, a tibble of decomposed features that are useful for understanding the time series observations.

``` r
tk_get_timeseries_signature(idx)
#> # A tibble: 1,008 × 17
#>         index  index.num   diff  year quarter month month.xts month.lbl
#>        <date>      <int>  <int> <int>   <int> <int>     <int>     <ord>
#> 1  2013-01-02 1357084800     NA  2013       1     1         0   January
#> 2  2013-01-03 1357171200  86400  2013       1     1         0   January
#> 3  2013-01-04 1357257600  86400  2013       1     1         0   January
#> 4  2013-01-07 1357516800 259200  2013       1     1         0   January
#> 5  2013-01-08 1357603200  86400  2013       1     1         0   January
#> 6  2013-01-09 1357689600  86400  2013       1     1         0   January
#> 7  2013-01-10 1357776000  86400  2013       1     1         0   January
#> 8  2013-01-11 1357862400  86400  2013       1     1         0   January
#> 9  2013-01-14 1358121600 259200  2013       1     1         0   January
#> 10 2013-01-15 1358208000  86400  2013       1     1         0   January
#> # ... with 998 more rows, and 9 more variables: day <int>, wday <int>,
#> #   wday.xts <int>, wday.lbl <ord>, mday <int>, yday <int>, hour <int>,
#> #   minute <int>, second <int>
```
…
