Between (For Time Series): Range detection for date or date-time sequences — between_time • timetk
…
# ---- FILTERING WITH DPLYR ----
FANG %>%
    group_by(symbol) %>%
    filter(date %>% between_time("2016-01", "2016-01"))
#> # A tibble: 76 × 8
#> # Groups:   symbol [4]
#>    symbol date        open  high   low close   volume adjusted
#>    <chr>  <date>     <dbl> <dbl> <dbl> <dbl>    <dbl>    <dbl>
#>  1 FB     2016-01-04 102.  102.   99.8 102.  37912400    102. 
#>  2 FB     2016-01-05 103.  104.  102.  103.  23258200    103. 
#>  3 FB     2016-01-06 101.  104.  101.  103.  25096200    103. 
#>  4 FB     2016-01-07 100.  101.   97.3  97.9 45172900     97.9
#>  5 FB     2016-01-08  99.9 100.   97.0  97.3 35402300     97.3
#>  6 FB     2016-01-11  97.9  98.6  95.4  97.5 29932400     97.5
#>  7 FB     2016-01-12  99   100.   97.6  99.4 28395400     99.4
#>  8 FB     2016-01-13 101.  101.   95.2  95.4 33410600     95.4
#>  9 FB     2016-01-14  95.8  98.9  92.4  98.4 48658600     98.4
#> 10 FB     2016-01-15  94.0  96.4  93.5  95.0 45935600     95.0
#> # ℹ 66 more rows
…
