Box Cox Transformation — box_cox_vec • timetk
…
value_bc <- box_cox_vec(d10_daily$value)
#> box_cox_vec(): Using value for lambda: 1.25119350454964
value    <- box_cox_inv_vec(value_bc, lambda = 1.25119350454964)

# --- MUTATE ----

m4_daily %>%
    dplyr::group_by(id) %>%
    dplyr::mutate(value_bc = box_cox_vec(value))
#> box_cox_vec(): Using value for lambda: 1.25119350454964
#> box_cox_vec(): Using value for lambda: 0.0882021886505848
#> box_cox_vec(): Using value for lambda: 1.99992424816297
#> box_cox_vec(): Using value for lambda: 0.401716085353735
#> # A tibble: 9,743 × 4
#> # Groups:   id [4]
#>    id    date       value value_bc
#>    <fct> <date>     <dbl>    <dbl>
#>  1 D10   2014-07-03 2076.   11303.
#>  2 D10   2014-07-04 2073.   11284.
#>  3 D10   2014-07-05 2049.   11116.
#>  4 D10   2014-07-06 2049.   11117.
#>  5 D10   2014-07-07 2006.   10829.
#>  6 D10   2014-07-08 2018.   10905.
#>  7 D10   2014-07-09 2019.   10915.
#>  8 D10   2014-07-10 2007.   10836.
#>  9 D10   2014-07-11 2010    10854.
#> 10 D10   2014-07-12 2002.   10796.
#> # ℹ 9,733 more rows
…
