Differencing Transformation — diff_vec • timetk
…
    group_by(id) %>%
    mutate(difference = diff_vec(value, lag = 1)) %>%
    mutate(
        difference_inv = diff_inv_vec(
            difference,
            lag = 1,
            # Add initial value to calculate the inverse difference
            initial_values = value[1]
        )
    )
#> diff_vec(): Initial values: 2076.2
#> diff_vec(): Initial values: 1821.9
#> diff_vec(): Initial values: 9109.38
#> diff_vec(): Initial values: 5647.3
#> # A tibble: 9,743 × 5
#> # Groups:   id [4]
#>    id    date       value difference difference_inv
#>    <fct> <date>     <dbl>      <dbl>          <dbl>
#>  1 D10   2014-07-03 2076.     NA              2076.
#>  2 D10   2014-07-04 2073.     -2.80           2073.
#>  3 D10   2014-07-05 2049.    -24.7            2049.
#>  4 D10   2014-07-06 2049.      0.200          2049.
#>  5 D10   2014-07-07 2006.    -42.5            2006.
#>  6 D10   2014-07-08 2018.     11.2            2018.
#>  7 D10   2014-07-09 2019.      1.5            2019.
#>  8 D10   2014-07-10 2007.    -11.7            2007.
#>  9 D10   2014-07-11 2010       2.60           2010 
#> 10 D10   2014-07-12 2002.     -8.5            2002.
#> # ℹ 9,733 more rows
…
