Sample of 4 Daily Time Series Datasets from the M4 Competition — m4_daily • timetk
…
value Numeric. Value at the corresponding timestamp.

    Source

M4 Competition Website

    Details

    This is a sample of 4 daily data sets from the M4 competition.

    Examples

m4_daily
#> # A tibble: 9,743 × 3
#>    id    date       value
#>    <fct> <date>     <dbl>
#>  1 D10   2014-07-03 2076.
#>  2 D10   2014-07-04 2073.
#>  3 D10   2014-07-05 2049.
#>  4 D10   2014-07-06 2049.
#>  5 D10   2014-07-07 2006.
#>  6 D10   2014-07-08 2018.
#>  7 D10   2014-07-09 2019.
#>  8 D10   2014-07-10 2007.
#>  9 D10   2014-07-11 2010 
#> 10 D10   2014-07-12 2002.
#> # … with 9,733 more rows
…
