Mutate (for Time Series Data) — mutate_by_time • timetk
…
# Libraries
library(dplyr)

# First value in each month
m4_daily_first_by_month_tbl <- m4_daily %>%
    group_by(id) %>%
    mutate_by_time(
        .date_var = date,
        .by       = "month", # Setup for monthly aggregation
        # mutate recycles a single value
        first_value_by_month  = first(value)
    )
m4_daily_first_by_month_tbl
#> # A tibble: 9,743 × 4
#> # Groups:   id [4]
#>    id    date       value first_value_by_month
#>    <fct> <date>     <dbl>                <dbl>
#>  1 D10   2014-07-03 2076.                2076.
#>  2 D10   2014-07-04 2073.                2076.
#>  3 D10   2014-07-05 2049.                2076.
#>  4 D10   2014-07-06 2049.                2076.
#>  5 D10   2014-07-07 2006.                2076.
#>  6 D10   2014-07-08 2018.                2076.
#>  7 D10   2014-07-09 2019.                2076.
#>  8 D10   2014-07-10 2007.                2076.
#>  9 D10   2014-07-11 2010                 2076.
#> 10 D10   2014-07-12 2002.                2076.
#> # ℹ 9,733 more rows
…
