Normalize to Range (0, 1) — normalize_vec • timetk
…
    group_by(id) %>%
    mutate(value_norm = normalize_vec(value))
#> Normalization Parameters
#> min: 1781.6
#> max: 2649.3
#> Normalization Parameters
#> min: 1734.9
#> max: 19432.5
#> Normalization Parameters
#> min: 6309.38
#> max: 9540.62
#> Normalization Parameters
#> min: 4172.1
#> max: 14954.1
#> # A tibble: 9,743 × 4
#> # Groups:   id [4]
#>    id    date       value value_norm
#>    <fct> <date>     <dbl>      <dbl>
#>  1 D10   2014-07-03 2076.      0.340
#>  2 D10   2014-07-04 2073.      0.336
#>  3 D10   2014-07-05 2049.      0.308
#>  4 D10   2014-07-06 2049.      0.308
#>  5 D10   2014-07-07 2006.      0.259
#>  6 D10   2014-07-08 2018.      0.272
#>  7 D10   2014-07-09 2019.      0.274
#>  8 D10   2014-07-10 2007.      0.260
#>  9 D10   2014-07-11 2010       0.263
#> 10 D10   2014-07-12 2002.      0.253
#> # ℹ 9,733 more rows
…
