Insert time series rows with regularly spaced timestamps — pad_by_time • timetk
…
# --- GROUPS ----

# Apply standard NA padding to groups
FANG %>%
    group_by(symbol) %>%
    pad_by_time(.by = "day")
#> .date_var is missing. Using: date
#> # A tibble: 5,836 × 8
#> # Groups:   symbol [4]
#>    symbol date        open  high   low close  volume adjusted
#>    <chr>  <date>     <dbl> <dbl> <dbl> <dbl>   <dbl>    <dbl>
#>  1 AMZN   2013-01-02  256.  258.  253.  257. 3271000     257.
#>  2 AMZN   2013-01-03  257.  261.  256.  258. 2750900     258.
#>  3 AMZN   2013-01-04  258.  260.  257.  259. 1874200     259.
#>  4 AMZN   2013-01-05   NA    NA    NA    NA       NA      NA 
#>  5 AMZN   2013-01-06   NA    NA    NA    NA       NA      NA 
#>  6 AMZN   2013-01-07  263.  270.  263.  268. 4910000     268.
#>  7 AMZN   2013-01-08  267.  269.  264.  266. 3010700     266.
#>  8 AMZN   2013-01-09  268.  270.  265.  266. 2265600     266.
#>  9 AMZN   2013-01-10  269.  269.  262.  265. 2863400     265.
#> 10 AMZN   2013-01-11  265.  268.  264.  268. 2413300     268.
#> # ℹ 5,826 more rows

# Apply constant pad value
FANG %>%
    group_by(symbol) %>%
    pad_by_time(.by = "day", .pad_value = 0)
#> .date_var is missing. Using: date
#> # A tibble: 5,836 × 8
#> # Groups:   symbol [4]
#>    symbol date        open  high   low close  volume adjusted
#>    <chr>  <date>     <dbl> <dbl> <dbl> <dbl>   <dbl>    <dbl>
#>  1 AMZN   2013-01-02  256.  258.  253.  257. 3271000     257.
#>  2 AMZN   2013-01-03  257.  261.  256.  258. 2750900     258.
#>  3 AMZN   2013-01-04  258.  260.  257.  259. 1874200     259.
#>  4 AMZN   2013-01-05    0     0     0     0        0       0 
#>  5 AMZN   2013-01-06    0     0     0     0        0       0 
#>  6 AMZN   2013-01-07  263.  270.  263.  268. 4910000     268.
#>  7 AMZN   2013-01-08  267.  269.  264.  266. 3010700     266.
#>  8 AMZN   2013-01-09  268.  270.  265.  266. 2265600     266.
#>  9 AMZN   2013-01-10  269.  269.  262.  265. 2863400     265.
#> 10 AMZN   2013-01-11  265.  268.  264.  268. 2413300     268.
#> # ℹ 5,826 more rows

# Apply filled padding to groups
FANG %>%
    group_by(symbol) %>%
    pad_by_time(.by = "day", .fill_na_direction = "down")
#> .date_var is missing. Using: date
#> # A tibble: 5,836 × 8
#> # Groups:   symbol [4]
#>    symbol date        open  high   low close  volume adjusted
#>    <chr>  <date>     <dbl> <dbl> <dbl> <dbl>   <dbl>    <dbl>
#>  1 AMZN   2013-01-02  256.  258.  253.  257. 3271000     257.
#>  2 AMZN   2013-01-03  257.  261.  256.  258. 2750900     258.
#>  3 AMZN   2013-01-04  258.  260.  257.  259. 1874200     259.
#>  4 AMZN   2013-01-05  258.  260.  257.  259. 1874200     259.
#>  5 AMZN   2013-01-06  258.  260.  257.  259. 1874200     259.
#>  6 AMZN   2013-01-07  263.  270.  263.  268. 4910000     268.
#>  7 AMZN   2013-01-08  267.  269.  264.  266. 3010700     266.
#>  8 AMZN   2013-01-09  268.  270.  265.  266. 2265600     266.
#>  9 AMZN   2013-01-10  269.  269.  262.  265. 2863400     265.
#> 10 AMZN   2013-01-11  265.  268.  264.  268. 2413300     268.
#> # ℹ 5,826 more rows
…
