Visualize a Time Series Resample Plan — plot_time_series_cv_plan • timetk
…
resample_spec <- time_series_cv(
    FB_tbl,
    initial = "1 year",
    assess  = "6 weeks",
    skip    = "3 months",
    lag     = "1 month",
    cumulative  = FALSE,
    slice_limit = 6
)
#> Using date_var: date

resample_spec %>% tk_time_series_cv_plan()
#> # A tibble: 1,812 × 5
#>    .id    .key     symbol date       adjusted
#>    <chr>  <fct>    <chr>  <date>        <dbl>
#>  1 Slice1 training FB     2015-11-19     106.
#>  2 Slice1 training FB     2015-11-20     107.
#>  3 Slice1 training FB     2015-11-23     107.
#>  4 Slice1 training FB     2015-11-24     106.
#>  5 Slice1 training FB     2015-11-25     105.
#>  6 Slice1 training FB     2015-11-27     105.
#>  7 Slice1 training FB     2015-11-30     104.
#>  8 Slice1 training FB     2015-12-01     107.
#>  9 Slice1 training FB     2015-12-02     106.
#> 10 Slice1 training FB     2015-12-03     104.
#> # ℹ 1,802 more rows
…
