Fourier Features for Modeling Seasonality — step_fourier • timetk
…
# Bake the recipe object - Adds the Fourier Series
bake(prep(rec_obj), FB_tbl)
#> # A tibble: 1,008 × 11
#>    symbol date       adjusted date_sin63_K1 date_cos63_K1 date_sin63_K2
#>    <fct>  <date>        <dbl>         <dbl>         <dbl>         <dbl>
#>  1 FB     2013-01-02     28          0.912         -0.411       -0.750 
#>  2 FB     2013-01-03     27.8        0.866         -0.500       -0.866 
#>  3 FB     2013-01-04     28.8        0.812         -0.584       -0.948 
#>  4 FB     2013-01-07     29.4        0.604         -0.797       -0.963 
#>  5 FB     2013-01-08     29.1        0.521         -0.853       -0.890 
#>  6 FB     2013-01-09     30.6        0.434         -0.901       -0.782 
#>  7 FB     2013-01-10     31.3        0.342         -0.940       -0.643 
#>  8 FB     2013-01-11     31.7        0.247         -0.969       -0.478 
#>  9 FB     2013-01-14     31.0       -0.0498        -0.999        0.0996
#> 10 FB     2013-01-15     30.1       -0.149         -0.989        0.295 
#> # ℹ 998 more rows
#> # ℹ 5 more variables: date_cos63_K2 <dbl>, date_sin252_K1 <dbl>,
#> #   date_cos252_K1 <dbl>, date_sin252_K2 <dbl>, date_cos252_K2 <dbl>
…
