Box-Cox Transformation using Forecast Methods — step_box_cox • timetk
…
FANG_wide <- FANG %>%
    select(symbol, date, adjusted) %>%
    tidyr::pivot_wider(names_from = symbol, values_from = adjusted)

recipe_box_cox <- recipe(~ ., data = FANG_wide) %>%
    step_box_cox(FB, AMZN, NFLX, GOOG) %>%
    prep()

recipe_box_cox %>% bake(FANG_wide)
#> # A tibble: 1,008 × 5
#>    date          FB  AMZN  NFLX  GOOG
#>    <date>     <dbl> <dbl> <dbl> <dbl>
#>  1 2013-01-02  12.5  8.28  4.92  5.26
#>  2 2013-01-03  12.4  8.28  5.08  5.27
#>  3 2013-01-04  12.7  8.29  5.06  5.28
#>  4 2013-01-07  12.9  8.37  5.17  5.28
#>  5 2013-01-08  12.8  8.35  5.10  5.28
#>  6 2013-01-09  13.3  8.35  5.06  5.28
#>  7 2013-01-10  13.5  8.34  5.13  5.28
#>  8 2013-01-11  13.7  8.36  5.24  5.28
#>  9 2013-01-14  13.4  8.40  5.32  5.26
#> 10 2013-01-15  13.1  8.39  5.26  5.27
#> # ℹ 998 more rows
…
