Clean Outliers and Missing Data for Time Series — step_ts_clean • timetk
…
library(dplyr)
library(tidyr)
library(recipes)

# Get missing values
FANG_wide <- FANG %>%
    select(symbol, date, adjusted) %>%
    pivot_wider(names_from = symbol, values_from = adjusted) %>%
    pad_by_time()
#> .date_var is missing. Using: date
#> pad applied on the interval: day

FANG_wide
#> # A tibble: 1,459 × 5
#>    date          FB  AMZN  NFLX  GOOG
#>    <date>     <dbl> <dbl> <dbl> <dbl>
#>  1 2013-01-02  28    257.  13.1  361.
#>  2 2013-01-03  27.8  258.  13.8  361.
#>  3 2013-01-04  28.8  259.  13.7  369.
#>  4 2013-01-05  NA     NA   NA     NA 
#>  5 2013-01-06  NA     NA   NA     NA 
#>  6 2013-01-07  29.4  268.  14.2  367.
#>  7 2013-01-08  29.1  266.  13.9  366.
#>  8 2013-01-09  30.6  266.  13.7  369.
#>  9 2013-01-10  31.3  265.  14    370.
#> 10 2013-01-11  31.7  268.  14.5  370.
#> # ℹ 1,449 more rows

# Apply Imputation
recipe_box_cox <- recipe(~ ., data = FANG_wide) %>%
    step_ts_clean(FB, AMZN, NFLX, GOOG, period = 252) %>%
    prep()

recipe_box_cox %>% bake(FANG_wide)
#> # A tibble: 1,459 × 5
#>    date          FB  AMZN  NFLX  GOOG
#>    <date>     <dbl> <dbl> <dbl> <dbl>
#>  1 2013-01-02  28    257.  13.1  361.
#>  2 2013-01-03  27.8  258.  13.8  361.
#>  3 2013-01-04  28.8  259.  13.7  369.
#>  4 2013-01-05  28.2  262.  14.1  365.
#>  5 2013-01-06  28.4  264.  14.6  366.
#>  6 2013-01-07  29.4  268.  14.2  367.
#>  7 2013-01-08  29.1  266.  13.9  366.
#>  8 2013-01-09  30.6  266.  13.7  369.
#>  9 2013-01-10  31.3  265.  14    370.
#> 10 2013-01-11  31.7  268.  14.5  370.
#> # ℹ 1,449 more rows
…
