Slidify Rolling Window Transformation (Augmented Version) — step_slidify_augment • timetk
…
m750_splits <- time_series_split(m750, assess = "2 years", cumulative = TRUE)
#> Using date_var: date

# Make a recipe
recipe_spec <- recipe(value ~ date + value_2, training(m750_splits)) %>%
    step_slidify_augment(
        value, value_2,
        period = c(6, 12, 24),
        .f = ~ mean(.x),
        align = "center",
        partial = FALSE
    )

recipe_spec %>% prep() %>% juice()
#> # A tibble: 282 × 9
#>    date       value_2 value slidify_6_value slidify_6_value_2 slidify_12_value
#>    <date>       <dbl> <dbl>           <dbl>             <dbl>            <dbl>
#>  1 1990-01-01    3185  6370             NA                NA               NA 
#>  2 1990-02-01    3215  6430             NA                NA               NA 
#>  3 1990-03-01    3260  6520           6535              3268.              NA 
#>  4 1990-04-01    3290  6580           6473.             3237.              NA 
#>  5 1990-05-01    3310  6620           6310              3155               NA 
#>  6 1990-06-01    3345  6690           6303.             3152.            6481.
#>  7 1990-07-01    3000  6000           6343.             3172.            6527.
#>  8 1990-08-01    2725  5450           6383.             3192.            6567.
#>  9 1990-09-01    3240  6480           6427.             3213.            6603.
#> 10 1990-10-01    3410  6820           6580              3290             6638.
#> # ℹ 272 more rows
#> # ℹ 3 more variables: slidify_12_value_2 <dbl>, slidify_24_value <dbl>,
#> #   slidify_24_value_2 <dbl>

bake(prep(recipe_spec), testing(m750_splits))
#> # A tibble: 24 × 9
#>    date       value_2 value slidify_6_value slidify_6_value_2 slidify_12_value
#>    <date>       <dbl> <dbl>           <dbl>             <dbl>            <dbl>
#>  1 2013-07-01    4515  9030             NA                NA               NA 
#>  2 2013-08-01    4810  9620             NA                NA               NA 
#>  3 2013-09-01    5025 10050          10107.             5053.              NA 
#>  4 2013-10-01    5305 10610          10390              5195               NA 
#>  5 2013-11-01    5380 10760          10563.             5282.              NA 
#>  6 2013-12-01    5285 10570          10705              5352.           10472.
#>  7 2014-01-01    5365 10730          10773.             5387.           10498.
#>  8 2014-02-01    5330 10660          10803.             5402.           10521.
#>  9 2014-03-01    5450 10900          10837.             5418.           10547.
#> 10 2014-04-01    5510 11020          10605              5302.           10575 
#> # ℹ 14 more rows
#> # ℹ 3 more variables: slidify_12_value_2 <dbl>, slidify_24_value <dbl>,
#> #   slidify_24_value_2 <dbl>
…
