Create a differenced predictor — step_diff • timetk
…
library(recipes)

FANG_wide <- FANG %>%
    dplyr::select(symbol, date, adjusted) %>%
    tidyr::pivot_wider(names_from = symbol, values_from = adjusted)

# Make and apply recipe ----

recipe_diff <- recipe(~ ., data = FANG_wide) %>%
  step_diff(FB, AMZN, NFLX, GOOG, lag = 1:3, difference = 1) %>%
  prep()

recipe_diff %>% bake(FANG_wide)
#> # A tibble: 1,008 × 17
#>    date          FB  AMZN  NFLX  GOOG diff_1_1_FB diff_1_1_AMZN diff_1_1_NFLX
#>    <date>     <dbl> <dbl> <dbl> <dbl>       <dbl>         <dbl>         <dbl>
#>  1 2013-01-02  28    257.  13.1  361.      NA           NA            NA     
#>  2 2013-01-03  27.8  258.  13.8  361.      -0.230        1.17          0.654 
#>  3 2013-01-04  28.8  259.  13.7  369.       0.990        0.670        -0.0871
#>  4 2013-01-07  29.4  268.  14.2  367.       0.66         9.31          0.460 
#>  5 2013-01-08  29.1  266.  13.9  366.      -0.360       -2.08         -0.291 
#>  6 2013-01-09  30.6  266.  13.7  369.       1.53        -0.0300       -0.179 
#>  7 2013-01-10  31.3  265.  14    370.       0.710       -1.01          0.299 
#>  8 2013-01-11  31.7  268.  14.5  370.       0.420        2.60          0.470 
#>  9 2013-01-14  31.0  273.  14.8  361.      -0.770        4.79          0.309 
#> 10 2013-01-15  30.1  272.  14.5  362.      -0.850       -0.830        -0.251 
#> # ℹ 998 more rows
#> # ℹ 9 more variables: diff_1_1_GOOG <dbl>, diff_2_1_FB <dbl>,
#> #   diff_2_1_AMZN <dbl>, diff_2_1_NFLX <dbl>, diff_2_1_GOOG <dbl>,
#> #   diff_3_1_FB <dbl>, diff_3_1_AMZN <dbl>, diff_3_1_NFLX <dbl>,
#> #   diff_3_1_GOOG <dbl>
…
