Add many lags to the data — tk_augment_lags • timetk
…
tk_augment_fourier() - Group-wise augmentation of fourier series

Underlying Function:
lag_vec() - Underlying function that powers tk_augment_lags()

    Examples

library(tidyverse)
library(timetk)

# Lags
m4_monthly %>%
    group_by(id) %>%
    tk_augment_lags(contains("value"), .lags = 1:20)
#> # A tibble: 1,574 × 23
#> # Groups:   id [4]
#>    id    date       value value_lag1 value_lag2 value_…¹ value…² value…³ value…⁴
#>    <fct> <date>     <dbl>      <dbl>      <dbl>    <dbl>   <dbl>   <dbl>   <dbl>
#>  1 M1    1976-06-01  8000         NA         NA       NA      NA      NA      NA
#>  2 M1    1976-07-01  8350       8000         NA       NA      NA      NA      NA
#>  3 M1    1976-08-01  8570       8350       8000       NA      NA      NA      NA
#>  4 M1    1976-09-01  7700       8570       8350     8000      NA      NA      NA
#>  5 M1    1976-10-01  7080       7700       8570     8350    8000      NA      NA
#>  6 M1    1976-11-01  6520       7080       7700     8570    8350    8000      NA
#>  7 M1    1976-12-01  6070       6520       7080     7700    8570    8350    8000
#>  8 M1    1977-01-01  6650       6070       6520     7080    7700    8570    8350
#>  9 M1    1977-02-01  6830       6650       6070     6520    7080    7700    8570
#> 10 M1    1977-03-01  5710       6830       6650     6070    6520    7080    7700
#> # … with 1,564 more rows, 14 more variables: value_lag7 <dbl>,
#> #   value_lag8 <dbl>, value_lag9 <dbl>, value_lag10 <dbl>, value_lag11 <dbl>,
#> #   value_lag12 <dbl>, value_lag13 <dbl>, value_lag14 <dbl>, value_lag15 <dbl>,
#> #   value_lag16 <dbl>, value_lag17 <dbl>, value_lag18 <dbl>, value_lag19 <dbl>,
#> #   value_lag20 <dbl>, and abbreviated variable names ¹​value_lag3, ²​value_lag4,
#> #   ³​value_lag5, ⁴​value_lag6
#> # ℹ Use `print(n = ...)` to see more rows, and `colnames()` to see all variable names

# Leads
m4_monthly %>%
    group_by(id) %>%
    tk_augment_leads(value, .lags = 1:-20)
#> # A tibble: 1,574 × 25
#> # Groups:   id [4]
#>    id    date       value value_lag1 value_lag0 value_…¹ value…² value…³ value…⁴
#>    <fct> <date>     <dbl>      <dbl>      <dbl>    <dbl>   <dbl>   <dbl>   <dbl>
#>  1 M1    1976-06-01  8000         NA       8000     8350    8570    7700    7080
#>  2 M1    1976-07-01  8350       8000       8350     8570    7700    7080    6520
#>  3 M1    1976-08-01  8570       8350       8570     7700    7080    6520    6070
#>  4 M1    1976-09-01  7700       8570       7700     7080    6520    6070    6650
#>  5 M1    1976-10-01  7080       7700       7080     6520    6070    6650    6830
#>  6 M1    1976-11-01  6520       7080       6520     6070    6650    6830    5710
#>  7 M1    1976-12-01  6070       6520       6070     6650    6830    5710    5260
#>  8 M1    1977-01-01  6650       6070       6650     6830    5710    5260    5470
#>  9 M1    1977-02-01  6830       6650       6830     5710    5260    5470    7870
#> 10 M1    1977-03-01  5710       6830       5710     5260    5470    7870    7360
#> # … with 1,564 more rows, 16 more variables: value_lead5 <dbl>,
#> #   value_lead6 <dbl>, value_lead7 <dbl>, value_lead8 <dbl>, value_lead9 <dbl>,
#> #   value_lead10 <dbl>, value_lead11 <dbl>, value_lead12 <dbl>,
#> #   value_lead13 <dbl>, value_lead14 <dbl>, value_lead15 <dbl>,
#> #   value_lead16 <dbl>, value_lead17 <dbl>, value_lead18 <dbl>,
#> #   value_lead19 <dbl>, value_lead20 <dbl>, and abbreviated variable names
#> #   ¹​value_lead1, ²​value_lead2, ³​value_lead3, ⁴​value_lead4
#> # ℹ Use `print(n = ...)` to see more rows, and `colnames()` to see all variable names
…
