Get date features from a time-series index — tk_get_timeseries • timetk
…
    tk_index(), tk_augment_timeseries_signature(), tk_make_future_timeseries()

    Examples

library(dplyr)
library(tidyquant)
library(timetk)

# Works with time-based tibbles
FB_tbl <- FANG %>% filter(symbol == "FB")
FB_idx <- tk_index(FB_tbl)

tk_get_timeseries_signature(FB_idx)
#> # A tibble: 1,008 × 29
#>    index      index.num   diff  year year.…¹  half quarter month month…² month…³
#>    <date>         <dbl>  <dbl> <int>   <int> <int>   <int> <int>   <int> <ord>  
#>  1 2013-01-02    1.36e9     NA  2013    2013     1       1     1       0 January
#>  2 2013-01-03    1.36e9  86400  2013    2013     1       1     1       0 January
#>  3 2013-01-04    1.36e9  86400  2013    2013     1       1     1       0 January
#>  4 2013-01-07    1.36e9 259200  2013    2013     1       1     1       0 January
#>  5 2013-01-08    1.36e9  86400  2013    2013     1       1     1       0 January
#>  6 2013-01-09    1.36e9  86400  2013    2013     1       1     1       0 January
#>  7 2013-01-10    1.36e9  86400  2013    2013     1       1     1       0 January
#>  8 2013-01-11    1.36e9  86400  2013    2013     1       1     1       0 January
#>  9 2013-01-14    1.36e9 259200  2013    2013     1       1     1       0 January
#> 10 2013-01-15    1.36e9  86400  2013    2013     1       1     1       0 January
#> # … with 998 more rows, 19 more variables: day <int>, hour <int>, minute <int>,
#> #   second <int>, hour12 <int>, am.pm <int>, wday <int>, wday.xts <int>,
#> #   wday.lbl <ord>, mday <int>, qday <int>, yday <int>, mweek <int>,
#> #   week <int>, week.iso <int>, week2 <int>, week3 <int>, week4 <int>,
#> #   mday7 <int>, and abbreviated variable names ¹​year.iso, ²​month.xts,
#> #   ³​month.lbl
…
