A Tool Kit for Working with Time Series • timetk
…
Getting started

Load libraries and start with some time series data

library(tidyverse)
library(timetk)
library(tidyquant)

Use the FB time series.

FB_tbl <- FANG %>%
    filter(symbol == "FB")
FB_tbl
#> # A tibble: 1,008 x 8
#>    symbol date        open  high   low close    volume adjusted
#>    <chr>  <date>     <dbl> <dbl> <dbl> <dbl>     <dbl>    <dbl>
#>  1 FB     2013-01-02  27.4  28.2  27.4  28    69846400     28  
#>  2 FB     2013-01-03  27.9  28.5  27.6  27.8  63140600     27.8
#>  3 FB     2013-01-04  28.0  28.9  27.8  28.8  72715400     28.8
#>  4 FB     2013-01-07  28.7  29.8  28.6  29.4  83781800     29.4
#>  5 FB     2013-01-08  29.5  29.6  28.9  29.1  45871300     29.1
#>  6 FB     2013-01-09  29.7  30.6  29.5  30.6 104787700     30.6
#>  7 FB     2013-01-10  30.6  31.5  30.3  31.3  95316400     31.3
#>  8 FB     2013-01-11  31.3  32.0  31.1  31.7  89598000     31.7
#>  9 FB     2013-01-14  32.1  32.2  30.6  31.0  98892800     31.0
#> 10 FB     2013-01-15  30.6  31.7  29.9  30.1 173242600     30.1
#> # … with 998 more rows
Extract a time series index

Get the timeseries index.

idx <- tk_index(FB_tbl)
head(idx)
#> [1] "2013-01-02" "2013-01-03" "2013-01-04" "2013-01-07" "2013-01-08"
#> [6] "2013-01-09"

Expand the time series signature

Get the time series signature from the index, a tibble of decomposed features that are useful for data mining and machine learning.

tk_get_timeseries_signature(idx)
#> # A tibble: 1,008 x 29
#>    index      index.num   diff  year year.iso  half quarter month month.xts
#>    <date>         <int>  <int> <int>    <int> <int>   <int> <int>     <int>
#>  1 2013-01-02    1.36e9     NA  2013     2013     1       1     1         0
#>  2 2013-01-03    1.36e9  86400  2013     2013     1       1     1         0
#>  3 2013-01-04    1.36e9  86400  2013     2013     1       1     1         0
#>  4 2013-01-07    1.36e9 259200  2013     2013     1       1     1         0
#>  5 2013-01-08    1.36e9  86400  2013     2013     1       1     1         0
#>  6 2013-01-09    1.36e9  86400  2013     2013     1       1     1         0
#>  7 2013-01-10    1.36e9  86400  2013     2013     1       1     1         0
#>  8 2013-01-11    1.36e9  86400  2013     2013     1       1     1         0
#>  9 2013-01-14    1.36e9 259200  2013     2013     1       1     1         0
#> 10 2013-01-15    1.36e9  86400  2013     2013     1       1     1         0
#> # … with 998 more rows, and 20 more variables: month.lbl <ord>, day <int>,
#> #   hour <int>, minute <int>, second <int>, hour12 <int>, am.pm <int>,
#> #   wday <int>, wday.xts <int>, wday.lbl <ord>, mday <int>, qday <int>,
#> #   yday <int>, mweek <int>, week <int>, week.iso <int>, week2 <int>,
#> #   week3 <int>, week4 <int>, mday7 <int>
…
