Working with the Time Series Index using timekit • timekit
…
Prerequisites

Before we get started, load the following packages.

library(tidyquant)
library(timekit)

Data

We’ll use the Facebook stock prices from the FANG data set from tidyquant. These are the historical stock prices (open, high, low, close, volume, and adjusted) for the “FB” stock from 2013 through 2016.

FB_tbl <- FANG %>% filter(symbol == "FB")
FB_tbl

## # A tibble: 1,008 x 8
##    symbol       date  open  high   low close    volume adjusted
##     <chr>     <date> <dbl> <dbl> <dbl> <dbl>     <dbl>    <dbl>
##  1     FB 2013-01-02 27.44 28.18 27.42 28.00  69846400    28.00
##  2     FB 2013-01-03 27.88 28.47 27.59 27.77  63140600    27.77
##  3     FB 2013-01-04 28.01 28.93 27.83 28.76  72715400    28.76
##  4     FB 2013-01-07 28.69 29.79 28.65 29.42  83781800    29.42
##  5     FB 2013-01-08 29.51 29.60 28.86 29.06  45871300    29.06
##  6     FB 2013-01-09 29.67 30.60 29.49 30.59 104787700    30.59
##  7     FB 2013-01-10 30.60 31.45 30.28 31.30  95316400    31.30
##  8     FB 2013-01-11 31.28 31.96 31.10 31.72  89598000    31.72
##  9     FB 2013-01-14 32.08 32.21 30.62 30.95  98892800    30.95
## 10     FB 2013-01-15 30.64 31.71 29.88 30.10 173242600    30.10
## # ... with 998 more rows

To simplify the tutorial, we will select only the “date” and “volume” columns. For the FB_vol_date data frame, we can see from the “date” column that the observations are daily beginning on the second day of 2013.

FB_vol_date <- FB_tbl %>% select(date, volume)
FB_vol_date

## # A tibble: 1,008 x 2
##          date    volume
##        <date>     <dbl>
##  1 2013-01-02  69846400
##  2 2013-01-03  63140600
##  3 2013-01-04  72715400
##  4 2013-01-07  83781800
##  5 2013-01-08  45871300
##  6 2013-01-09 104787700
##  7 2013-01-10  95316400
##  8 2013-01-11  89598000
##  9 2013-01-14  98892800
## 10 2013-01-15 173242600
## # ... with 998 more rows
…
week.iso: The ISO week number of the year (Monday start).

week2: The modulus for bi-weekly frequency.

week3: The modulus for tri-weekly frequency.

week4: The modulus for quad-weekly frequency.

mday7: The integer division of day of the month by seven, which returns the first, second, third, … instance the day has appeared in the month. Values begin at 1. For example, the first Saturday in the month has mday7 = 1. The second has mday7 = 2.

# idx_date signature
tk_get_timeseries_signature(idx_date)

## # A tibble: 1,008 x 28
##         index  index.num   diff  year  half quarter month month.xts
##        <date>      <int>  <int> <int> <int>   <int> <int>     <int>
##  1 2013-01-02 1357084800     NA  2013     1       1     1         0
##  2 2013-01-03 1357171200  86400  2013     1       1     1         0
##  3 2013-01-04 1357257600  86400  2013     1       1     1         0
##  4 2013-01-07 1357516800 259200  2013     1       1     1         0
##  5 2013-01-08 1357603200  86400  2013     1       1     1         0
##  6 2013-01-09 1357689600  86400  2013     1       1     1         0
##  7 2013-01-10 1357776000  86400  2013     1       1     1         0
##  8 2013-01-11 1357862400  86400  2013     1       1     1         0
##  9 2013-01-14 1358121600 259200  2013     1       1     1         0
## 10 2013-01-15 1358208000  86400  2013     1       1     1         0
## # ... with 998 more rows, and 20 more variables: month.lbl <ord>,
## #   day <int>, hour <int>, minute <int>, second <int>, hour12 <int>,
## #   am.pm <int>, wday <int>, wday.xts <int>, wday.lbl <ord>, mday <int>,
## #   qday <int>, yday <int>, mweek <int>, week <int>, week.iso <int>,
## #   week2 <int>, week3 <int>, week4 <int>, mday7 <dbl>
…
It’s usually important to keep the index signature with the values (e.g. volume in our example). We can use an expedited approach with tk_augment_timeseries_signature(), which adds the signature to the end of the time series object. Note that xts and zoo objects only retain numeric columns and therefore “month.lbl” and “wday.lbl” columns will be dropped. We’ll use the tk_augment_timeseries_signature() function on the dataframe FB_vol_date which contains the date and volume columns.

# Augmenting a data frame
FB_vol_date_signature <- tk_augment_timeseries_signature(FB_vol_date)
FB_vol_date_signature

## # A tibble: 1,008 x 29
##          date    volume  index.num   diff  year  half quarter month
##        <date>     <dbl>      <int>  <int> <int> <int>   <int> <int>
##  1 2013-01-02  69846400 1357084800     NA  2013     1       1     1
##  2 2013-01-03  63140600 1357171200  86400  2013     1       1     1
##  3 2013-01-04  72715400 1357257600  86400  2013     1       1     1
##  4 2013-01-07  83781800 1357516800 259200  2013     1       1     1
##  5 2013-01-08  45871300 1357603200  86400  2013     1       1     1
##  6 2013-01-09 104787700 1357689600  86400  2013     1       1     1
##  7 2013-01-10  95316400 1357776000  86400  2013     1       1     1
##  8 2013-01-11  89598000 1357862400  86400  2013     1       1     1
##  9 2013-01-14  98892800 1358121600 259200  2013     1       1     1
## 10 2013-01-15 173242600 1358208000  86400  2013     1       1     1
## # ... with 998 more rows, and 21 more variables: month.xts <int>,
## #   month.lbl <ord>, day <int>, hour <int>, minute <int>, second <int>,
## #   hour12 <int>, am.pm <int>, wday <int>, wday.xts <int>, wday.lbl <ord>,
## #   mday <int>, qday <int>, yday <int>, mweek <int>, week <int>,
## #   week.iso <int>, week2 <int>, week3 <int>, week4 <int>, mday7 <dbl>
…
