Time Series Data Wrangling • timetk
…
Data

This tutorial will use the FANG dataset:

Daily

Irregular (missing business holidays and weekends)

4 groups (FB, AMZN, NFLX, and GOOG).

FANG

## # A tibble: 4,032 x 8
##    symbol date        open  high   low close    volume adjusted
##    <chr>  <date>     <dbl> <dbl> <dbl> <dbl>     <dbl>    <dbl>
##  1 FB     2013-01-02  27.4  28.2  27.4  28    69846400     28  
##  2 FB     2013-01-03  27.9  28.5  27.6  27.8  63140600     27.8
##  3 FB     2013-01-04  28.0  28.9  27.8  28.8  72715400     28.8
##  4 FB     2013-01-07  28.7  29.8  28.6  29.4  83781800     29.4
##  5 FB     2013-01-08  29.5  29.6  28.9  29.1  45871300     29.1
##  6 FB     2013-01-09  29.7  30.6  29.5  30.6 104787700     30.6
##  7 FB     2013-01-10  30.6  31.5  30.3  31.3  95316400     31.3
##  8 FB     2013-01-11  31.3  32.0  31.1  31.7  89598000     31.7
##  9 FB     2013-01-14  32.1  32.2  30.6  31.0  98892800     31.0
## 10 FB     2013-01-15  30.6  31.7  29.9  30.1 173242600     30.1
## # … with 4,022 more rows
…
We will leave padded values as NA.

We can add a value using .pad_value or we can impute using a function like ts_impute_vec() (shown next).

FANG %>%
  group_by(symbol) %>%
  pad_by_time(date, .by = "auto") # Guesses .by = "day"

## pad applied on the interval: day
## pad applied on the interval: day
## pad applied on the interval: day
## pad applied on the interval: day

## # A tibble: 5,836 x 8
## # Groups:   symbol [4]
##    symbol date        open  high   low close    volume adjusted
##    <chr>  <date>     <dbl> <dbl> <dbl> <dbl>     <dbl>    <dbl>
##  1 FB     2013-01-02  27.4  28.2  27.4  28    69846400     28  
##  2 FB     2013-01-03  27.9  28.5  27.6  27.8  63140600     27.8
##  3 FB     2013-01-04  28.0  28.9  27.8  28.8  72715400     28.8
##  4 FB     2013-01-05  NA    NA    NA    NA          NA     NA  
##  5 FB     2013-01-06  NA    NA    NA    NA          NA     NA  
##  6 FB     2013-01-07  28.7  29.8  28.6  29.4  83781800     29.4
##  7 FB     2013-01-08  29.5  29.6  28.9  29.1  45871300     29.1
##  8 FB     2013-01-09  29.7  30.6  29.5  30.6 104787700     30.6
##  9 FB     2013-01-10  30.6  31.5  30.3  31.3  95316400     31.3
## 10 FB     2013-01-11  31.3  32.0  31.1  31.7  89598000     31.7
## # … with 5,826 more rows
…
For simple rolling calculations (rolling average), we can accomplish this operation faster with slidify_vec() - A vectorized rolling function for simple summary rolls (e.g. mean(), sd(), sum(), etc)

FANG %>%
  select(symbol, date, adjusted) %>%
  group_by(symbol) %>%
  # Apply roll apply Function
  mutate(rolling_avg_30 = slidify_vec(adjusted,  ~ AVERAGE(.),
                                      .period = 30, .partial = TRUE))

## # A tibble: 4,032 x 4
## # Groups:   symbol [4]
##    symbol date       adjusted rolling_avg_30
##    <chr>  <date>        <dbl>          <dbl>
##  1 FB     2013-01-02     28             30.0
##  2 FB     2013-01-03     27.8           30.1
##  3 FB     2013-01-04     28.8           30.2
##  4 FB     2013-01-07     29.4           30.2
##  5 FB     2013-01-08     29.1           30.3
##  6 FB     2013-01-09     30.6           30.3
##  7 FB     2013-01-10     31.3           30.3
##  8 FB     2013-01-11     31.7           30.2
##  9 FB     2013-01-14     31.0           30.1
## 10 FB     2013-01-15     30.1           30.1
## # … with 4,022 more rows
…
Use the multi-variable purrr ..1, ..2, ..3, etc notation to setup a function

# Rolling regressions are easy to implement using `.unlist = FALSE`
lm_roll <- slidify(~ lm(..1 ~ ..2 + ..3), .period = 90,
                   .unlist = FALSE, .align = "right")

FANG %>%
  select(symbol, date, adjusted, volume) %>%
  group_by(symbol) %>%
  mutate(numeric_date = as.numeric(date)) %>%
  # Apply rolling regression
  mutate(rolling_lm = lm_roll(adjusted, volume, numeric_date)) %>%
  filter(!is.na(rolling_lm))

## # A tibble: 3,676 x 6
## # Groups:   symbol [4]
##    symbol date       adjusted   volume numeric_date rolling_lm
##    <chr>  <date>        <dbl>    <dbl>        <dbl> <list>    
##  1 FB     2013-05-10     26.7 30847100        15835 <lm>      
##  2 FB     2013-05-13     26.8 29068800        15838 <lm>      
##  3 FB     2013-05-14     27.1 24930300        15839 <lm>      
##  4 FB     2013-05-15     26.6 30299800        15840 <lm>      
##  5 FB     2013-05-16     26.1 35499100        15841 <lm>      
##  6 FB     2013-05-17     26.2 29462700        15842 <lm>      
##  7 FB     2013-05-20     25.8 42402900        15845 <lm>      
##  8 FB     2013-05-21     25.7 26261300        15846 <lm>      
##  9 FB     2013-05-22     25.2 45314500        15847 <lm>      
## 10 FB     2013-05-23     25.1 37663100        15848 <lm>      
## # … with 3,666 more rows
…
