Time Series Clustering • timetk
…
library(tidyverse)
library(timetk)

Data

This tutorial will use the walmart_sales_weekly dataset:

Weekly

Sales spikes at various events

walmart_sales_weekly

## # A tibble: 1,001 × 17
##    id    Store  Dept Date       Weekly_Sales IsHoliday Type    Size Temperature
##    <fct> <dbl> <dbl> <date>            <dbl> <lgl>     <chr>  <dbl>       <dbl>
##  1 1_1       1     1 2010-02-05       24924. FALSE     A     151315        42.3
##  2 1_1       1     1 2010-02-12       46039. TRUE      A     151315        38.5
##  3 1_1       1     1 2010-02-19       41596. FALSE     A     151315        39.9
##  4 1_1       1     1 2010-02-26       19404. FALSE     A     151315        46.6
##  5 1_1       1     1 2010-03-05       21828. FALSE     A     151315        46.5
##  6 1_1       1     1 2010-03-12       21043. FALSE     A     151315        57.8
##  7 1_1       1     1 2010-03-19       22137. FALSE     A     151315        54.6
##  8 1_1       1     1 2010-03-26       26229. FALSE     A     151315        51.4
##  9 1_1       1     1 2010-04-02       57258. FALSE     A     151315        62.3
## 10 1_1       1     1 2010-04-09       42961. FALSE     A     151315        65.9
## # … with 991 more rows, and 8 more variables: Fuel_Price <dbl>,
## #   MarkDown1 <dbl>, MarkDown2 <dbl>, MarkDown3 <dbl>, MarkDown4 <dbl>,
## #   MarkDown5 <dbl>, CPI <dbl>, Unemployment <dbl>
…
