Make future time series from existing — future_frame • timetk
…
    See also

Making Future Time Series: tk_make_future_timeseries() (Underlying function)

    Examples

library(dplyr)
library(tidyquant)
library(timetk)

# 30-min interval data
taylor_30_min %>%
    future_frame(date, .length_out = "1 week")
#> # A tibble: 336 x 1
#>    date               
#>    <dttm>             
#>  1 2000-08-28 00:00:00
#>  2 2000-08-28 00:30:00
#>  3 2000-08-28 01:00:00
#>  4 2000-08-28 01:30:00
#>  5 2000-08-28 02:00:00
#>  6 2000-08-28 02:30:00
#>  7 2000-08-28 03:00:00
#>  8 2000-08-28 03:30:00
#>  9 2000-08-28 04:00:00
#> 10 2000-08-28 04:30:00
#> # … with 326 more rows

# Daily Data (Grouped)
m4_daily %>%
    group_by(id) %>%
    future_frame(date, .length_out = "6 weeks")
#> # A tibble: 168 x 2
#> # Groups:   id [4]
#>    id    date      
#>    <fct> <date>    
#>  1 D10   2016-05-07
#>  2 D10   2016-05-08
#>  3 D10   2016-05-09
#>  4 D10   2016-05-10
#>  5 D10   2016-05-11
#>  6 D10   2016-05-12
#>  7 D10   2016-05-13
#>  8 D10   2016-05-14
#>  9 D10   2016-05-15
#> 10 D10   2016-05-16
#> # … with 158 more rows

# Specify how many observations to project into the future
m4_daily %>%
    group_by(id) %>%
    future_frame(date, .length_out = 100)
#> # A tibble: 400 x 2
#> # Groups:   id [4]
#>    id    date      
#>    <fct> <date>    
#>  1 D10   2016-05-07
#>  2 D10   2016-05-08
#>  3 D10   2016-05-09
#>  4 D10   2016-05-10
#>  5 D10   2016-05-11
#>  6 D10   2016-05-12
#>  7 D10   2016-05-13
#>  8 D10   2016-05-14
#>  9 D10   2016-05-15
#> 10 D10   2016-05-16
#> # … with 390 more rows

# Remove Non-Working Days (Weekends & Holidays)
holidays <- tk_make_holiday_sequence(
    start_date = "2017-01-01",
    end_date   = "2017-12-31",
    calendar   = "NYSE")

FANG %>%
    group_by(symbol) %>%
    future_frame(.length_out       = "1 year",
                 .inspect_weekdays = TRUE,
                 .skip_values      = holidays)
#> .date_var is missing. Using: date
#> # A tibble: 1,004 x 2
#> # Groups:   symbol [4]
#>    symbol date      
#>    <chr>  <date>    
#>  1 FB     2017-01-03
#>  2 FB     2017-01-04
#>  3 FB     2017-01-05
#>  4 FB     2017-01-06
#>  5 FB     2017-01-09
#>  6 FB     2017-01-10
#>  7 FB     2017-01-11
#>  8 FB     2017-01-12
#>  9 FB     2017-01-13
#> 10 FB     2017-01-17
#> # … with 994 more rows
…
