Simple Training/Test Set Splitting for Time Series — initial_timeseries_split • timetk
…
    Examples

library(tidyverse)
library(timetk)

# DATA ----
m750 <- m4_monthly %>% filter(id == "M750")

# Get the most recent 3 years as testing, and previous 10 years as training
m750 %>%
    initial_timeseries_split(initial = "10 years", assess = "3 years")
#> Using date_var: date
#> $data
#> # A tibble: 306 x 3
#>    id    date       value
#>    <fct> <date>     <dbl>
#>  1 M750  1990-01-01  6370
#>  2 M750  1990-02-01  6430
#>  3 M750  1990-03-01  6520
#>  4 M750  1990-04-01  6580
#>  5 M750  1990-05-01  6620
#>  6 M750  1990-06-01  6690
#>  7 M750  1990-07-01  6000
#>  8 M750  1990-08-01  5450
#>  9 M750  1990-09-01  6480
#> 10 M750  1990-10-01  6820
#> # … with 296 more rows
…
# Skip the most recent 3 years
m750 %>%
    initial_timeseries_split(
        initial = "10 years",
        assess  = "3 years",
        skip    = "3 years",
        slice   = 2          # <- Returns 2nd slice, 3-years back
    )
#> Using date_var: date
#> $data
#> # A tibble: 306 x 3
#>    id    date       value
#>    <fct> <date>     <dbl>
#>  1 M750  1990-01-01  6370
#>  2 M750  1990-02-01  6430
#>  3 M750  1990-03-01  6520
#>  4 M750  1990-04-01  6580
#>  5 M750  1990-05-01  6620
#>  6 M750  1990-06-01  6690
#>  7 M750  1990-07-01  6000
#>  8 M750  1990-08-01  5450
#>  9 M750  1990-09-01  6480
#> 10 M750  1990-10-01  6820
#> # … with 296 more rows
…
# Add 1 year lag for testing overlap
m750 %>%
    initial_timeseries_split(
        initial = "10 years",
        assess  = "3 years",
        skip    = "3 years",
        slice   = 2,
        lag     = "1 year"   # <- Overlaps training/testing by 1 year
    )
#> Using date_var: date
#> $data
#> # A tibble: 306 x 3
#>    id    date       value
#>    <fct> <date>     <dbl>
#>  1 M750  1990-01-01  6370
#>  2 M750  1990-02-01  6430
#>  3 M750  1990-03-01  6520
#>  4 M750  1990-04-01  6580
#>  5 M750  1990-05-01  6620
#>  6 M750  1990-06-01  6690
#>  7 M750  1990-07-01  6000
#>  8 M750  1990-08-01  5450
#>  9 M750  1990-09-01  6480
#> 10 M750  1990-10-01  6820
#> # … with 296 more rows
…
