Simple Training/Test Set Splitting for Time Series — initial_time_split_2 • timetk
…
#>    <date>     <dbl>
#>  1 2015-10-01 11983
#>  2 2015-11-01 11506
#>  3 2015-12-01 14183
#>  4 2016-01-01  8650
#>  5 2016-02-01 10323
#>  6 2016-03-01 12110
#>  7 2016-04-01 11424
#>  8 2016-05-01 12243
#>  9 2016-06-01 13686
#> 10 2016-07-01 10956
#> 11 2016-08-01 12706
#> 12 2016-09-01 12279
test_data
#> # A tibble: 24 x 2
#>    date       sales
#>    <date>     <dbl>
#>  1 2015-10-01 11983
#>  2 2015-11-01 11506
#>  3 2015-12-01 14183
#>  4 2016-01-01  8650
#>  5 2016-02-01 10323
#>  6 2016-03-01 12110
#>  7 2016-04-01 11424
#>  8 2016-05-01 12243
#>  9 2016-06-01 13686
#> 10 2016-07-01 10956
#> # … with 14 more rows
…
