Sample of 4 Quarterly Time Series Datasets from the M4 Competition — m4_quarterly • timetk
…
value Numeric. Value at the corresponding timestamp.

    Source

M4 Competition Website

    Details

    This is a sample of 4 Quarterly data sets from the M4 competition.

    Examples

m4_quarterly
#> # A tibble: 196 x 3
#>    id    date       value
#>    <fct> <date>     <dbl>
#>  1 Q10   2000-01-01 2329 
#>  2 Q10   2000-04-01 2350.
#>  3 Q10   2000-07-01 2333.
#>  4 Q10   2000-10-01 2382.
#>  5 Q10   2001-01-01 2383.
#>  6 Q10   2001-04-01 2405 
#>  7 Q10   2001-07-01 2411 
#>  8 Q10   2001-10-01 2428.
#>  9 Q10   2002-01-01 2392.
#> 10 Q10   2002-04-01 2418.
#> # … with 186 more rows
…
