Visualize a Time Series Resample Plan — plot_time_series_cv_plan • timetk
…
FB_tbl <- FANG %>%
    filter(symbol == "FB") %>%
    select(symbol, date, adjusted)

resample_spec <- time_series_cv(
    FB_tbl,
    initial = 150, assess = 50, skip = 50,
    cumulative = FALSE,
    lag = 30,
    slice_limit = 6
)

resample_spec %>% tk_time_series_cv_plan()
#> # A tibble: 1,380 x 5
#>    id     key      symbol date       adjusted
#>    <chr>  <fct>    <chr>  <date>        <dbl>
#>  1 Slice1 training FB     2015-10-23     102.
#>  2 Slice1 training FB     2015-10-26     104.
#>  3 Slice1 training FB     2015-10-27     104.
#>  4 Slice1 training FB     2015-10-28     104.
#>  5 Slice1 training FB     2015-10-29     105.
#>  6 Slice1 training FB     2015-10-30     102.
#>  7 Slice1 training FB     2015-11-02     103.
#>  8 Slice1 training FB     2015-11-03     103.
#>  9 Slice1 training FB     2015-11-04     104.
#> 10 Slice1 training FB     2015-11-05     109.
#> # … with 1,370 more rows
…
