Visualize Multiple Seasonality Features for One or More Time Series — plot_seasonal_diagnostics • timetk
…
Transformations

The .value parameter respects transformations (e.g. .value = log(sales)).

    Examples

library(dplyr)
library(timetk)

# ---- MULTIPLE FREQUENCY ----
# Taylor 30-minute dataset from forecast package
taylor_30_min
#> # A tibble: 4,032 x 2
#>    date                value
#>    <dttm>              <dbl>
#>  1 2000-06-05 00:00:00 22262
#>  2 2000-06-05 00:30:00 21756
#>  3 2000-06-05 01:00:00 22247
#>  4 2000-06-05 01:30:00 22759
#>  5 2000-06-05 02:00:00 22549
#>  6 2000-06-05 02:30:00 22313
#>  7 2000-06-05 03:00:00 22128
#>  8 2000-06-05 03:30:00 21860
#>  9 2000-06-05 04:00:00 21751
#> 10 2000-06-05 04:30:00 21336
#> # … with 4,022 more rows
…
# ---- GROUPED EXAMPLES ----
# m4 hourly dataset
m4_hourly
#> # A tibble: 3,060 x 3
#>    id    date                value
#>    <fct> <dttm>              <dbl>
#>  1 H10   2015-07-01 12:00:00   513
#>  2 H10   2015-07-01 13:00:00   512
#>  3 H10   2015-07-01 14:00:00   506
#>  4 H10   2015-07-01 15:00:00   500
#>  5 H10   2015-07-01 16:00:00   490
#>  6 H10   2015-07-01 17:00:00   484
#>  7 H10   2015-07-01 18:00:00   467
#>  8 H10   2015-07-01 19:00:00   446
#>  9 H10   2015-07-01 20:00:00   434
#> 10 H10   2015-07-01 21:00:00   422
#> # … with 3,050 more rows
…
