Create a rolling (sliding) version of any function — slidify • timetk
…
library(tidyverse)
library(tidyquant)
library(timetk)

FB <- FANG %>% filter(symbol == "FB")

# --- ROLLING MEAN (SINGLE ARG EXAMPLE) ---

# Turn the normal mean function into a rolling mean with a 5 row .period
mean_roll_5 <- slidify(mean, .period = 5, .align = "right")

FB %>%
    mutate(rolling_mean_5 = mean_roll_5(adjusted))
#> # A tibble: 1,008 x 9
#>    symbol date        open  high   low close    volume adjusted rolling_mean_5
#>    <chr>  <date>     <dbl> <dbl> <dbl> <dbl>     <dbl>    <dbl>          <dbl>
#>  1 FB     2013-01-02  27.4  28.2  27.4  28    69846400     28             NA  
#>  2 FB     2013-01-03  27.9  28.5  27.6  27.8  63140600     27.8           NA  
#>  3 FB     2013-01-04  28.0  28.9  27.8  28.8  72715400     28.8           NA  
#>  4 FB     2013-01-07  28.7  29.8  28.6  29.4  83781800     29.4           NA  
#>  5 FB     2013-01-08  29.5  29.6  28.9  29.1  45871300     29.1           28.6
#>  6 FB     2013-01-09  29.7  30.6  29.5  30.6 104787700     30.6           29.1
#>  7 FB     2013-01-10  30.6  31.5  30.3  31.3  95316400     31.3           29.8
#>  8 FB     2013-01-11  31.3  32.0  31.1  31.7  89598000     31.7           30.4
#>  9 FB     2013-01-14  32.1  32.2  30.6  31.0  98892800     31.0           30.7
#> 10 FB     2013-01-15  30.6  31.7  29.9  30.1 173242600     30.1           30.9
#> # … with 998 more rows

# Use `partial = TRUE` to allow partial windows (those with less than the full .period)
mean_roll_5_partial <- slidify(mean, .period = 5, .align = "right", .partial = TRUE)

FB %>%
    mutate(rolling_mean_5 = mean_roll_5_partial(adjusted))
#> # A tibble: 1,008 x 9
#>    symbol date        open  high   low close    volume adjusted rolling_mean_5
#>    <chr>  <date>     <dbl> <dbl> <dbl> <dbl>     <dbl>    <dbl>          <dbl>
#>  1 FB     2013-01-02  27.4  28.2  27.4  28    69846400     28             28  
#>  2 FB     2013-01-03  27.9  28.5  27.6  27.8  63140600     27.8           27.9
#>  3 FB     2013-01-04  28.0  28.9  27.8  28.8  72715400     28.8           28.2
#>  4 FB     2013-01-07  28.7  29.8  28.6  29.4  83781800     29.4           28.5
#>  5 FB     2013-01-08  29.5  29.6  28.9  29.1  45871300     29.1           28.6
#>  6 FB     2013-01-09  29.7  30.6  29.5  30.6 104787700     30.6           29.1
#>  7 FB     2013-01-10  30.6  31.5  30.3  31.3  95316400     31.3           29.8
#>  8 FB     2013-01-11  31.3  32.0  31.1  31.7  89598000     31.7           30.4
#>  9 FB     2013-01-14  32.1  32.2  30.6  31.0  98892800     31.0           30.7
#> 10 FB     2013-01-15  30.6  31.7  29.9  30.1 173242600     30.1           30.9
#> # … with 998 more rows

# There's nothing stopping you from combining multiple rolling functions with
# different .period sizes in the same mutate call

mean_roll_10 <- slidify(mean, .period = 10, .align = "right")

FB %>%
    select(symbol, date, adjusted) %>%
    mutate(
        rolling_mean_5  = mean_roll_5(adjusted),
        rolling_mean_10 = mean_roll_10(adjusted)
    )
#> # A tibble: 1,008 x 5
#>    symbol date       adjusted rolling_mean_5 rolling_mean_10
#>    <chr>  <date>        <dbl>          <dbl>           <dbl>
#>  1 FB     2013-01-02     28             NA              NA  
#>  2 FB     2013-01-03     27.8           NA              NA  
#>  3 FB     2013-01-04     28.8           NA              NA  
#>  4 FB     2013-01-07     29.4           NA              NA  
#>  5 FB     2013-01-08     29.1           28.6            NA  
#>  6 FB     2013-01-09     30.6           29.1            NA  
#>  7 FB     2013-01-10     31.3           29.8            NA  
#>  8 FB     2013-01-11     31.7           30.4            NA  
#>  9 FB     2013-01-14     31.0           30.7            NA  
#> 10 FB     2013-01-15     30.1           30.9            29.8
#> # … with 998 more rows

# For summary operations like rolling means, we can accomplish large-scale
# multi-rolls with tk_augment_roll_apply()

FB %>%
    select(symbol, date, adjusted) %>%
    tk_augment_roll_apply(
        adjusted, .period = 5:10, .f = mean, .align = "right",
        .names = str_c("MA_", 5:10)
    )
#> # A tibble: 1,008 x 9
#>    symbol date       adjusted  MA_5  MA_6  MA_7  MA_8  MA_9 MA_10
#>    <chr>  <date>        <dbl> <dbl> <dbl> <dbl> <dbl> <dbl> <dbl>
#>  1 FB     2013-01-02     28    NA    NA    NA    NA    NA    NA  
#>  2 FB     2013-01-03     27.8  NA    NA    NA    NA    NA    NA  
#>  3 FB     2013-01-04     28.8  NA    NA    NA    NA    NA    NA  
#>  4 FB     2013-01-07     29.4  NA    NA    NA    NA    NA    NA  
#>  5 FB     2013-01-08     29.1  28.6  NA    NA    NA    NA    NA  
#>  6 FB     2013-01-09     30.6  29.1  28.9  NA    NA    NA    NA  
#>  7 FB     2013-01-10     31.3  29.8  29.5  29.3  NA    NA    NA  
#>  8 FB     2013-01-11     31.7  30.4  30.1  29.8  29.6  NA    NA  
#>  9 FB     2013-01-14     31.0  30.7  30.5  30.3  29.9  29.7  NA  
#> 10 FB     2013-01-15     30.1  30.9  30.6  30.4  30.2  30.0  29.8
#> # … with 998 more rows
…
# --- ROLLING CORRELATION (MULTIPLE ARG EXAMPLE) ---

# With 2 args, use the purrr syntax of ~ and .x, .y
# Rolling correlation example
cor_roll <- slidify(~cor(.x, .y), .period = 5, .align = "right")

FB %>%
    mutate(running_cor = cor_roll(adjusted, open))
#> # A tibble: 1,008 x 9
#>    symbol date        open  high   low close    volume adjusted running_cor
#>    <chr>  <date>     <dbl> <dbl> <dbl> <dbl>     <dbl>    <dbl>       <dbl>
#>  1 FB     2013-01-02  27.4  28.2  27.4  28    69846400     28        NA    
#>  2 FB     2013-01-03  27.9  28.5  27.6  27.8  63140600     27.8      NA    
#>  3 FB     2013-01-04  28.0  28.9  27.8  28.8  72715400     28.8      NA    
#>  4 FB     2013-01-07  28.7  29.8  28.6  29.4  83781800     29.4      NA    
#>  5 FB     2013-01-08  29.5  29.6  28.9  29.1  45871300     29.1       0.749
#>  6 FB     2013-01-09  29.7  30.6  29.5  30.6 104787700     30.6       0.805
#>  7 FB     2013-01-10  30.6  31.5  30.3  31.3  95316400     31.3       0.859
#>  8 FB     2013-01-11  31.3  32.0  31.1  31.7  89598000     31.7       0.884
#>  9 FB     2013-01-14  32.1  32.2  30.6  31.0  98892800     31.0       0.667
#> 10 FB     2013-01-15  30.6  31.7  29.9  30.1 173242600     30.1       0.379
#> # … with 998 more rows
…
# Or
avg_of_avgs <- slidify(
    ~(mean(..1) + mean(..2) + mean(..3)) / 3,
    .period = 10,
    .align  = "right"
)

FB %>%
    mutate(avg_of_avgs = avg_of_avgs(open, high, low))
#> # A tibble: 1,008 x 9
#>    symbol date        open  high   low close    volume adjusted avg_of_avgs
#>    <chr>  <date>     <dbl> <dbl> <dbl> <dbl>     <dbl>    <dbl>       <dbl>
#>  1 FB     2013-01-02  27.4  28.2  27.4  28    69846400     28          NA  
#>  2 FB     2013-01-03  27.9  28.5  27.6  27.8  63140600     27.8        NA  
#>  3 FB     2013-01-04  28.0  28.9  27.8  28.8  72715400     28.8        NA  
#>  4 FB     2013-01-07  28.7  29.8  28.6  29.4  83781800     29.4        NA  
#>  5 FB     2013-01-08  29.5  29.6  28.9  29.1  45871300     29.1        NA  
#>  6 FB     2013-01-09  29.7  30.6  29.5  30.6 104787700     30.6        NA  
#>  7 FB     2013-01-10  30.6  31.5  30.3  31.3  95316400     31.3        NA  
#>  8 FB     2013-01-11  31.3  32.0  31.1  31.7  89598000     31.7        NA  
#>  9 FB     2013-01-14  32.1  32.2  30.6  31.0  98892800     31.0        NA  
#> 10 FB     2013-01-15  30.6  31.7  29.9  30.1 173242600     30.1        29.7
#> # … with 998 more rows

# Optional arguments MUST be passed at the creation of the rolling function
# Only data arguments that are "rolled over" are allowed when calling the
# rolling version of the function
FB$adjusted[1] <- NA

roll_mean_na_rm <- slidify(~mean(.x, na.rm = TRUE), .period = 5, .align = "right")

FB %>%
    mutate(roll_mean = roll_mean_na_rm(adjusted))
#> # A tibble: 1,008 x 9
#>    symbol date        open  high   low close    volume adjusted roll_mean
#>    <chr>  <date>     <dbl> <dbl> <dbl> <dbl>     <dbl>    <dbl>     <dbl>
#>  1 FB     2013-01-02  27.4  28.2  27.4  28    69846400     NA        NA  
#>  2 FB     2013-01-03  27.9  28.5  27.6  27.8  63140600     27.8      NA  
#>  3 FB     2013-01-04  28.0  28.9  27.8  28.8  72715400     28.8      NA  
#>  4 FB     2013-01-07  28.7  29.8  28.6  29.4  83781800     29.4      NA  
#>  5 FB     2013-01-08  29.5  29.6  28.9  29.1  45871300     29.1      28.8
#>  6 FB     2013-01-09  29.7  30.6  29.5  30.6 104787700     30.6      29.1
#>  7 FB     2013-01-10  30.6  31.5  30.3  31.3  95316400     31.3      29.8
#>  8 FB     2013-01-11  31.3  32.0  31.1  31.7  89598000     31.7      30.4
#>  9 FB     2013-01-14  32.1  32.2  30.6  31.0  98892800     31.0      30.7
#> 10 FB     2013-01-15  30.6  31.7  29.9  30.1 173242600     30.1      30.9
#> # … with 998 more rows
…
FB_summarised$summary_roll[[5]]
#>    Min. 1st Qu.  Median    Mean 3rd Qu.    Max. 
#>   27.77   28.00   28.76   28.60   29.06   29.42 

# dplyr::bind_rows() is often helpful in these cases to get
# meaningful output

summary_roll <- slidify(~ bind_rows(summary(.)),
                        .period = 5, .unlist = FALSE, .align = "right")

FB %>%
    mutate(summary_roll = summary_roll(adjusted)) %>%
    filter(!is.na(summary_roll)) %>%
    unnest(summary_roll)
#> # A tibble: 1,004 x 14
#>    symbol date        open  high   low close volume adjusted  Min. `1st Qu.`
#>    <chr>  <date>     <dbl> <dbl> <dbl> <dbl>  <dbl>    <dbl> <dbl>     <dbl>
#>  1 FB     2013-01-08  29.5  29.6  28.9  29.1 4.59e7     29.1  27.8      28  
#>  2 FB     2013-01-09  29.7  30.6  29.5  30.6 1.05e8     30.6  27.8      28.8
#>  3 FB     2013-01-10  30.6  31.5  30.3  31.3 9.53e7     31.3  28.8      29.1
#>  4 FB     2013-01-11  31.3  32.0  31.1  31.7 8.96e7     31.7  29.1      29.4
#>  5 FB     2013-01-14  32.1  32.2  30.6  31.0 9.89e7     31.0  29.1      30.6
#>  6 FB     2013-01-15  30.6  31.7  29.9  30.1 1.73e8     30.1  30.1      30.6
#>  7 FB     2013-01-16  30.2  30.4  29.5  29.8 7.53e7     29.8  29.8      30.1
#>  8 FB     2013-01-17  30.1  30.4  30.0  30.1 4.03e7     30.1  29.8      30.1
#>  9 FB     2013-01-18  30.3  30.4  29.3  29.7 4.96e7     29.7  29.7      29.8
#> 10 FB     2013-01-22  29.8  30.9  29.7  30.7 5.52e7     30.7  29.7      29.8
#> # … with 994 more rows, and 4 more variables: Median <dbl>, Mean <dbl>, `3rd
#> #   Qu.` <dbl>, Max. <dbl>

# --- ROLLING REGRESSIONS ----

# Rolling regressions are easy to implement using `.unlist = FALSE`
lm_roll <- slidify(~lm(.x ~ .y), .period = 90, .unlist = FALSE, .align = "right")

FB %>%
    mutate(numeric_date = as.numeric(date)) %>%
    mutate(rolling_lm = lm_roll(adjusted, numeric_date)) %>%
    filter(!is.na(rolling_lm))
#> # A tibble: 919 x 10
#>    symbol date        open  high   low close volume adjusted numeric_date
#>    <chr>  <date>     <dbl> <dbl> <dbl> <dbl>  <dbl>    <dbl>        <dbl>
#>  1 FB     2013-05-10  27.1  27.3  26.6  26.7 3.08e7     26.7        15835
#>  2 FB     2013-05-13  26.6  27.3  26.5  26.8 2.91e7     26.8        15838
#>  3 FB     2013-05-14  26.9  27.3  26.8  27.1 2.49e7     27.1        15839
#>  4 FB     2013-05-15  26.9  27.0  26.4  26.6 3.03e7     26.6        15840
#>  5 FB     2013-05-16  26.5  26.5  25.9  26.1 3.55e7     26.1        15841
#>  6 FB     2013-05-17  26.4  26.6  26.2  26.2 2.95e7     26.2        15842
#>  7 FB     2013-05-20  26.2  26.2  25.7  25.8 4.24e7     25.8        15845
#>  8 FB     2013-05-21  25.9  26.1  25.6  25.7 2.63e7     25.7        15846
#>  9 FB     2013-05-22  25.6  25.8  24.9  25.2 4.53e7     25.2        15847
#> 10 FB     2013-05-23  24.8  25.5  24.8  25.1 3.77e7     25.1        15848
#> # … with 909 more rows, and 1 more variable: rolling_lm <list>
…
