Time Series Feature (Signature) Generator — step_timeseries_signature • timetk
…
# Bake the recipe object - Adds the Time Series Signature
bake(prep(rec_obj), FB_tbl)
#> # A tibble: 1,008 x 35
#>    symbol date        open  high   low close volume adjusted date_index.num
#>    <fct>  <date>     <dbl> <dbl> <dbl> <dbl>  <dbl>    <dbl>          <int>
#>  1 FB     2013-01-02  27.4  28.2  27.4  28   6.98e7     28       1357084800
#>  2 FB     2013-01-03  27.9  28.5  27.6  27.8 6.31e7     27.8     1357171200
#>  3 FB     2013-01-04  28.0  28.9  27.8  28.8 7.27e7     28.8     1357257600
#>  4 FB     2013-01-07  28.7  29.8  28.6  29.4 8.38e7     29.4     1357516800
#>  5 FB     2013-01-08  29.5  29.6  28.9  29.1 4.59e7     29.1     1357603200
#>  6 FB     2013-01-09  29.7  30.6  29.5  30.6 1.05e8     30.6     1357689600
#>  7 FB     2013-01-10  30.6  31.5  30.3  31.3 9.53e7     31.3     1357776000
#>  8 FB     2013-01-11  31.3  32.0  31.1  31.7 8.96e7     31.7     1357862400
#>  9 FB     2013-01-14  32.1  32.2  30.6  31.0 9.89e7     31.0     1358121600
#> 10 FB     2013-01-15  30.6  31.7  29.9  30.1 1.73e8     30.1     1358208000
#> # … with 998 more rows, and 26 more variables: date_year <int>,
#> #   date_year.iso <int>, date_half <int>, date_quarter <int>, date_month <int>,
#> #   date_month.xts <int>, date_month.lbl <ord>, date_day <int>,
#> #   date_hour <int>, date_minute <int>, date_second <int>, date_hour12 <int>,
#> #   date_am.pm <int>, date_wday <int>, date_wday.xts <int>,
#> #   date_wday.lbl <ord>, date_mday <int>, date_qday <int>, date_yday <int>,
#> #   date_mweek <int>, date_week <int>, date_week.iso <int>, date_week2 <int>,
#> #   date_week3 <int>, date_week4 <int>, date_mday7 <int>

# Tidy shows which features have been added during the 1st step
#  in this case, step 1 is the step_timeseries_signature step
tidy(rec_obj)
#> # A tibble: 1 x 6
#>   number operation type                 trained skip  id                        
#>    <int> <chr>     <chr>                <lgl>   <lgl> <chr>                     
#> 1      1 step      timeseries_signature FALSE   FALSE timeseries_signature_hGFRs
tidy(rec_obj, number = 1)
#> # A tibble: 27 x 3
#>    terms value     id                        
#>    <fct> <fct>     <chr>                     
#>  1 date  index.num timeseries_signature_hGFRs
#>  2 date  year      timeseries_signature_hGFRs
#>  3 date  year.iso  timeseries_signature_hGFRs
#>  4 date  half      timeseries_signature_hGFRs
#>  5 date  quarter   timeseries_signature_hGFRs
#>  6 date  month     timeseries_signature_hGFRs
#>  7 date  month.xts timeseries_signature_hGFRs
#>  8 date  month.lbl timeseries_signature_hGFRs
#>  9 date  day       timeseries_signature_hGFRs
#> 10 date  hour      timeseries_signature_hGFRs
#> # … with 17 more rows
…
