Fourier Features for Modeling Seasonality — step_fourier_series • timetk
…
# Bake the recipe object - Adds the Fourier Series
bake(prep(rec_obj), FB_tbl)
#> # A tibble: 1,008 x 12
#>    symbol date        open  high   low close volume adjusted date_cos_1_90
#>    <fct>  <date>     <dbl> <dbl> <dbl> <dbl>  <dbl>    <dbl>         <dbl>
#>  1 FB     2013-01-02  27.4  28.2  27.4  28   6.98e7     28           0.970
#>  2 FB     2013-01-03  27.9  28.5  27.6  27.8 6.31e7     27.8         0.951
#>  3 FB     2013-01-04  28.0  28.9  27.8  28.8 7.27e7     28.8         0.928
#>  4 FB     2013-01-07  28.7  29.8  28.6  29.4 8.38e7     29.4         0.830
#>  5 FB     2013-01-08  29.5  29.6  28.9  29.1 4.59e7     29.1         0.789
#>  6 FB     2013-01-09  29.7  30.6  29.5  30.6 1.05e8     30.6         0.745
#>  7 FB     2013-01-10  30.6  31.5  30.3  31.3 9.53e7     31.3         0.696
#>  8 FB     2013-01-11  31.3  32.0  31.1  31.7 8.96e7     31.7         0.645
#>  9 FB     2013-01-14  32.1  32.2  30.6  31.0 9.89e7     31.0         0.472
#> 10 FB     2013-01-15  30.6  31.7  29.9  30.1 1.73e8     30.1         0.410
#> # … with 998 more rows, and 3 more variables: date_cos_1_365 <dbl>,
#> #   date_sin_1_90 <dbl>, date_sin_1_365 <dbl>
…
