Pad: Add rows to fill gaps and go from low to high frequency — step_ts_pad • timetk
…
# Bake the recipe object - Adds the padding
bake(prep(rec_obj), FB_tbl)

#> # A tibble: 1,459 x 3
#>    symbol date       adjusted
#>    <fct>  <date>        <dbl>
#>  1 FB     2013-01-02     28  
#>  2 FB     2013-01-03     27.8
#>  3 FB     2013-01-04     28.8
#>  4 NA     2013-01-05     NA  
#>  5 NA     2013-01-06     NA  
#>  6 FB     2013-01-07     29.4
#>  7 FB     2013-01-08     29.1
#>  8 FB     2013-01-09     30.6
#>  9 FB     2013-01-10     31.3
#> 10 FB     2013-01-11     31.7
#> # … with 1,449 more rows
…
