Holiday Feature (Signature) Generator — step_holiday_signature • timetk
…
# Apply the recipe to add new holiday features!
bake(rec_holiday_prep, dates_in_2017_tbl)
#> # A tibble: 365 x 20
#>    index      index_exch_NYSE index_locale_US index_US_NewYea… index_US_MLKing…
#>    <date>               <dbl>           <dbl>            <dbl>            <dbl>
#>  1 2017-01-01               0               1                1                0
#>  2 2017-01-02               1               0                0                0
#>  3 2017-01-03               0               0                0                0
#>  4 2017-01-04               0               0                0                0
#>  5 2017-01-05               0               0                0                0
#>  6 2017-01-06               0               0                0                0
#>  7 2017-01-07               0               0                0                0
#>  8 2017-01-08               0               0                0                0
#>  9 2017-01-09               0               0                0                0
#> 10 2017-01-10               0               0                0                0
#> # … with 355 more rows, and 15 more variables: index_US_InaugurationDay <dbl>,
#> #   index_US_LincolnsBirthday <dbl>, index_US_PresidentsDay <dbl>,
#> #   index_US_WashingtonsBirthday <dbl>, index_US_CPulaskisBirthday <dbl>,
#> #   index_US_GoodFriday <dbl>, index_US_MemorialDay <dbl>,
#> #   index_US_DecorationMemorialDay <dbl>, index_US_IndependenceDay <dbl>,
#> #   index_US_LaborDay <dbl>, index_US_ColumbusDay <dbl>,
#> #   index_US_ElectionDay <dbl>, index_US_VeteransDay <dbl>,
#> #   index_US_ThanksgivingDay <dbl>, index_US_ChristmasDay <dbl>
…
