Summarise (for Time Series Data) — summarise_by_time • timetk
…
# Libraries
library(timetk)
library(dplyr)

# First value in each month
m4_daily %>%
    group_by(id) %>%
    summarise_by_time(
        .date_var = date,
        .by       = "month", # Setup for monthly aggregation
        # Summarization
        value  = first(value)
    )

#> # A tibble: 323 x 3
#> # Groups:   id [4]
#>    id    date       value
#>    <fct> <date>     <dbl>
#>  1 D10   2014-07-01 2076.
#>  2 D10   2014-08-01 1923.
#>  3 D10   2014-09-01 1908.
#>  4 D10   2014-10-01 2049.
#>  5 D10   2014-11-01 2133.
#>  6 D10   2014-12-01 2244.
#>  7 D10   2015-01-01 2351 
#>  8 D10   2015-02-01 2286.
#>  9 D10   2015-03-01 2291.
#> 10 D10   2015-04-01 2396.
#> # … with 313 more rows

# Last value in each month (day is first day of next month with ceiling option)
m4_daily %>%
    group_by(id) %>%
    summarise_by_time(
        .by        = "month",
        value      = last(value),
        .type      = "ceiling"
    ) %>%
    # Shift to the last day of the month
    mutate(date = date %-time% "1 day")

#> .date_var is missing. Using: date
#> # A tibble: 323 x 3
#> # Groups:   id [4]
#>    id    date       value
#>    <fct> <date>     <dbl>
#>  1 D10   2014-07-31 1917.
#>  2 D10   2014-08-31 1921.
#>  3 D10   2014-09-30 2024.
#>  4 D10   2014-10-31 2130 
#>  5 D10   2014-11-30 2217.
#>  6 D10   2014-12-31 2328.
#>  7 D10   2015-01-31 2210.
#>  8 D10   2015-02-28 2293.
#>  9 D10   2015-03-31 2392.
#> 10 D10   2015-04-30 2368.
#> # … with 313 more rows

# Total each year (.by is set to "year" now)
m4_daily %>%
    group_by(id) %>%
    summarise_by_time(
        .by        = "year",
        value      = sum(value)
    )

#> .date_var is missing. Using: date
#> # A tibble: 30 x 3
#> # Groups:   id [4]
#>    id    date          value
#>    <fct> <date>        <dbl>
#>  1 D10   2014-01-01  377389.
#>  2 D10   2015-01-01  839533.
#>  3 D10   2016-01-01  307401.
#>  4 D160  2000-01-01  767500.
#>  5 D160  2001-01-01  871497.
#>  6 D160  2002-01-01 1464374.
#>  7 D160  2003-01-01 3160291.
#>  8 D160  2004-01-01 5424860 
#>  9 D160  2005-01-01 6127995.
#> 10 D160  2006-01-01 3694712.
#> # … with 20 more rows
…
