Time Series Cross Validation — time_series_cv • timetk
…
resample_spec
#> # Time Series Cross Validation Plan 
#> # A tibble: 3 x 2
#>   splits          id    
#>   <list>          <chr> 
#> 1 <split [72/24]> Slice1
#> 2 <split [72/24]> Slice2
#> 3 <split [72/24]> Slice3

# VISUALIZE CV PLAN ----

# Select date and value columns from the tscv diagnostic tool
resample_spec %>% tk_time_series_cv_plan()
#> # A tibble: 288 x 5
#>    .id    .key     id    date       value
#>    <chr>  <fct>    <fct> <date>     <dbl>
#>  1 Slice1 training M750  2007-07-01  8710
#>  2 Slice1 training M750  2007-08-01  8300
#>  3 Slice1 training M750  2007-09-01  8910
#>  4 Slice1 training M750  2007-10-01  9710
#>  5 Slice1 training M750  2007-11-01  9870
#>  6 Slice1 training M750  2007-12-01  9980
#>  7 Slice1 training M750  2008-01-01  9970
#>  8 Slice1 training M750  2008-02-01  9970
#>  9 Slice1 training M750  2008-03-01 10120
#> 10 Slice1 training M750  2008-04-01 10150
#> # … with 278 more rows
…
