Add many holiday features to the data — tk_augment_holiday • timetk
…
    Examples

library(dplyr)
library(timetk)

dates_in_2017_tbl <- tibble(index = tk_make_timeseries("2017-01-01", "2017-12-31", by = "day"))

# Non-working days in US due to Holidays using NYSE stock exchange calendar
dates_in_2017_tbl %>%
    tk_augment_holiday_signature(
        index,
        .holiday_pattern = "^$",   # Returns nothing on purpose
        .locale_set      = "none",
        .exchange_set    = "NYSE")
#> # A tibble: 365 x 2
#>    index      exch_NYSE
#>    <date>         <dbl>
#>  1 2017-01-01         0
#>  2 2017-01-02         1
#>  3 2017-01-03         0
#>  4 2017-01-04         0
#>  5 2017-01-05         0
#>  6 2017-01-06         0
#>  7 2017-01-07         0
#>  8 2017-01-08         0
#>  9 2017-01-09         0
#> 10 2017-01-10         0
#> # … with 355 more rows

# All holidays in US
dates_in_2017_tbl %>%
    tk_augment_holiday_signature(
        index,
        .holiday_pattern = "US_",
        .locale_set      = "US",
        .exchange_set    = "none")
#> # A tibble: 365 x 19
#>    index      locale_US US_NewYearsDay US_MLKingsBirth… US_Inauguration…
#>    <date>         <dbl>          <dbl>            <dbl>            <dbl>
#>  1 2017-01-01         1              1                0                0
#>  2 2017-01-02         0              0                0                0
#>  3 2017-01-03         0              0                0                0
#>  4 2017-01-04         0              0                0                0
#>  5 2017-01-05         0              0                0                0
#>  6 2017-01-06         0              0                0                0
#>  7 2017-01-07         0              0                0                0
#>  8 2017-01-08         0              0                0                0
#>  9 2017-01-09         0              0                0                0
#> 10 2017-01-10         0              0                0                0
#> # … with 355 more rows, and 14 more variables: US_LincolnsBirthday <dbl>,
#> #   US_PresidentsDay <dbl>, US_WashingtonsBirthday <dbl>,
#> #   US_CPulaskisBirthday <dbl>, US_GoodFriday <dbl>, US_MemorialDay <dbl>,
#> #   US_DecorationMemorialDay <dbl>, US_IndependenceDay <dbl>,
#> #   US_LaborDay <dbl>, US_ColumbusDay <dbl>, US_ElectionDay <dbl>,
#> #   US_VeteransDay <dbl>, US_ThanksgivingDay <dbl>, US_ChristmasDay <dbl>

# All holidays for World and Italy-specific Holidays
# - Note that Italy celebrates specific holidays in addition to many World Holidays
dates_in_2017_tbl %>%
    tk_augment_holiday_signature(
        index,
        .holiday_pattern = "(World)|(IT_)",
        .locale_set      = c("World", "IT"),
        .exchange_set    = "none")
#> # A tibble: 365 x 45
#>    index      locale_World locale_IT World_NewYearsD… World_Solemnity…
#>    <date>            <dbl>     <dbl>            <dbl>            <dbl>
#>  1 2017-01-01            1         0                1                1
#>  2 2017-01-02            0         0                0                0
#>  3 2017-01-03            0         0                0                0
#>  4 2017-01-04            0         0                0                0
#>  5 2017-01-05            0         0                0                0
#>  6 2017-01-06            1         1                0                0
#>  7 2017-01-07            0         0                0                0
#>  8 2017-01-08            0         0                0                0
#>  9 2017-01-09            0         0                0                0
#> 10 2017-01-10            0         0                0                0
#> # … with 355 more rows, and 40 more variables: World_Epiphany <dbl>,
#> #   IT_Epiphany <dbl>, World_PresentationOfLord <dbl>,
#> #   World_Septuagesima <dbl>, World_Quinquagesima <dbl>,
#> #   World_AshWednesday <dbl>, World_Annunciation <dbl>, World_PalmSunday <dbl>,
#> #   World_GoodFriday <dbl>, World_Easter <dbl>, World_EasterSunday <dbl>,
#> #   World_EasterMonday <dbl>, IT_LiberationDay <dbl>, World_LaborDay <dbl>,
#> #   World_RogationSunday <dbl>, World_Ascension <dbl>, World_Pentecost <dbl>,
#> #   World_PentecostMonday <dbl>, World_TrinitySunday <dbl>,
#> #   World_CorpusChristi <dbl>, World_TransfigurationOfLord <dbl>,
…
