Add many lags to the data — tk_augment_lags • timetk
…
tk_augment_fourier() - Group-wise augmentation of fourier series

Underlying Function:

lag_vec() - Underlying function that powers tk_augment_lags()

    Examples

library(tidyverse)
library(timetk)

m4_monthly %>%
    group_by(id) %>%
    tk_augment_lags(value, .lags = 1:20)
#> # A tibble: 1,574 x 23
#> # Groups:   id [4]
#>    id    date       value value_lag1 value_lag2 value_lag3 value_lag4 value_lag5
#>    <fct> <date>     <dbl>      <dbl>      <dbl>      <dbl>      <dbl>      <dbl>
#>  1 M1    1976-06-01  8000         NA         NA         NA         NA         NA
#>  2 M1    1976-07-01  8350       8000         NA         NA         NA         NA
#>  3 M1    1976-08-01  8570       8350       8000         NA         NA         NA
#>  4 M1    1976-09-01  7700       8570       8350       8000         NA         NA
#>  5 M1    1976-10-01  7080       7700       8570       8350       8000         NA
#>  6 M1    1976-11-01  6520       7080       7700       8570       8350       8000
#>  7 M1    1976-12-01  6070       6520       7080       7700       8570       8350
#>  8 M1    1977-01-01  6650       6070       6520       7080       7700       8570
#>  9 M1    1977-02-01  6830       6650       6070       6520       7080       7700
#> 10 M1    1977-03-01  5710       6830       6650       6070       6520       7080
#> # … with 1,564 more rows, and 15 more variables: value_lag6 <dbl>,
#> #   value_lag7 <dbl>, value_lag8 <dbl>, value_lag9 <dbl>, value_lag10 <dbl>,
#> #   value_lag11 <dbl>, value_lag12 <dbl>, value_lag13 <dbl>, value_lag14 <dbl>,
#> #   value_lag15 <dbl>, value_lag16 <dbl>, value_lag17 <dbl>, value_lag18 <dbl>,
#> #   value_lag19 <dbl>, value_lag20 <dbl>
…
