Get ACF, PACF, and CCF in One Data Frame — tk_acf_diagnostics • timetk
…
Visualizing ACF, PACF, & CCF: plot_acf_diagnostics()

    Examples

library(tidyverse)
library(tidyquant)
library(timetk)

# ACF, PACF, & CCF in 1 Data Frame
# - Get ACF & PACF for target (adjusted)
# - Get CCF between adjusted and volume and close
FANG %>%
    filter(symbol == "FB") %>%
    tk_acf_diagnostics(.value = adjusted, volume, close, .lags = 0:500)
#> # A tibble: 501 x 5
#>      lag   ACF      PACF CCF_volume CCF_close
#>    <dbl> <dbl>     <dbl>      <dbl>     <dbl>
#>  1     0 1.00   1            -0.447     1.00 
#>  2     1 0.997  0.997        -0.444     0.997
#>  3     2 0.994 -0.0227       -0.442     0.994
#>  4     3 0.990  0.0101       -0.438     0.990
#>  5     4 0.987  0.0311       -0.437     0.987
#>  6     5 0.985  0.0180       -0.438     0.985
#>  7     6 0.982  0.00502      -0.437     0.982
#>  8     7 0.979  0.0171       -0.437     0.979
#>  9     8 0.976 -0.000118     -0.436     0.976
#> 10     9 0.974 -0.00243      -0.435     0.974
#> # … with 491 more rows

# Do the same thing for groups with group_by()
FANG %>%
    group_by(symbol) %>%
    tk_acf_diagnostics(.value = adjusted, volume, close, .lags = 0:500)
#> # A tibble: 2,004 x 6
#> # Groups:   symbol [4]
#>    symbol   lag   ACF      PACF CCF_volume CCF_close
#>    <chr>  <dbl> <dbl>     <dbl>      <dbl>     <dbl>
#>  1 FB         0 1.00   1            -0.447     1.00 
#>  2 FB         1 0.997  0.997        -0.444     0.997
#>  3 FB         2 0.994 -0.0227       -0.442     0.994
#>  4 FB         3 0.990  0.0101       -0.438     0.990
#>  5 FB         4 0.987  0.0311       -0.437     0.987
#>  6 FB         5 0.985  0.0180       -0.438     0.985
#>  7 FB         6 0.982  0.00502      -0.437     0.982
#>  8 FB         7 0.979  0.0171       -0.437     0.979
#>  9 FB         8 0.976 -0.000118     -0.436     0.976
#> 10 FB         9 0.974 -0.00243      -0.435     0.974
#> # … with 1,994 more rows
…
