Add many rolling window calculations to the data — tk_augment_roll_apply • timetk
…
FANG %>%
    select(symbol, date, adjusted) %>%
    group_by(symbol) %>%
    tk_augment_roll_apply(
        .column  = adjusted,
        # Multiple rolling windows
        .period  = c(10, 30, 60, 90),
        .f       = AVERAGE,
        .partial = TRUE,
        .names   = str_c("MA_", c(10, 30, 60, 90))
    )
#> # A tibble: 4,032 x 7
#> # Groups:   symbol [4]
#>    symbol date       adjusted MA_10 MA_30 MA_60 MA_90
#>    <chr>  <date>        <dbl> <dbl> <dbl> <dbl> <dbl>
#>  1 FB     2013-01-02     28    28.9  30.0  29.7  29.1
#>  2 FB     2013-01-03     27.8  29.3  30.1  29.7  29.1
#>  3 FB     2013-01-04     28.8  29.6  30.2  29.7  29.0
#>  4 FB     2013-01-07     29.4  29.7  30.2  29.6  29.0
#>  5 FB     2013-01-08     29.1  29.8  30.3  29.6  29.0
#>  6 FB     2013-01-09     30.6  29.8  30.3  29.5  28.9
#>  7 FB     2013-01-10     31.3  30.0  30.3  29.4  28.9
#>  8 FB     2013-01-11     31.7  30.1  30.2  29.4  28.8
#>  9 FB     2013-01-14     31.0  30.3  30.1  29.3  28.8
#> 10 FB     2013-01-15     30.1  30.4  30.1  29.3  28.7
#> # … with 4,022 more rows
…
