Augment the time series signature to the data — tk_augment_timeseries • timetk
…
FANG %>%
    filter(symbol == "FB") %>%
    tk_augment_timeseries_signature()
#> # A tibble: 1,008 x 36
#>    symbol date        open  high   low close volume adjusted index.num   diff
#>    <chr>  <date>     <dbl> <dbl> <dbl> <dbl>  <dbl>    <dbl>     <int>  <int>
#>  1 FB     2013-01-02  27.4  28.2  27.4  28   6.98e7     28      1.36e9     NA
#>  2 FB     2013-01-03  27.9  28.5  27.6  27.8 6.31e7     27.8    1.36e9  86400
#>  3 FB     2013-01-04  28.0  28.9  27.8  28.8 7.27e7     28.8    1.36e9  86400
#>  4 FB     2013-01-07  28.7  29.8  28.6  29.4 8.38e7     29.4    1.36e9 259200
#>  5 FB     2013-01-08  29.5  29.6  28.9  29.1 4.59e7     29.1    1.36e9  86400
#>  6 FB     2013-01-09  29.7  30.6  29.5  30.6 1.05e8     30.6    1.36e9  86400
#>  7 FB     2013-01-10  30.6  31.5  30.3  31.3 9.53e7     31.3    1.36e9  86400
#>  8 FB     2013-01-11  31.3  32.0  31.1  31.7 8.96e7     31.7    1.36e9  86400
#>  9 FB     2013-01-14  32.1  32.2  30.6  31.0 9.89e7     31.0    1.36e9 259200
#> 10 FB     2013-01-15  30.6  31.7  29.9  30.1 1.73e8     30.1    1.36e9  86400
#> # … with 998 more rows, and 26 more variables: year <int>, year.iso <int>,
#> #   half <int>, quarter <int>, month <int>, month.xts <int>, month.lbl <ord>,
#> #   day <int>, hour <int>, minute <int>, second <int>, hour12 <int>,
#> #   am.pm <int>, wday <int>, wday.xts <int>, wday.lbl <ord>, mday <int>,
#> #   qday <int>, yday <int>, mweek <int>, week <int>, week.iso <int>,
#> #   week2 <int>, week3 <int>, week4 <int>, mday7 <int>
…
