Get date features from a time-series index — tk_get_timeseries • timetk
…
    tk_index(), tk_augment_timeseries_signature(), tk_make_future_timeseries()

    Examples

library(dplyr)
library(tidyquant)
library(timetk)

# Works with time-based tibbles
FB_tbl <- FANG %>% filter(symbol == "FB")
FB_idx <- tk_index(FB_tbl)

tk_get_timeseries_signature(FB_idx)
#> # A tibble: 1,008 x 29
#>    index      index.num   diff  year year.iso  half quarter month month.xts
#>    <date>         <int>  <int> <int>    <int> <int>   <int> <int>     <int>
#>  1 2013-01-02    1.36e9     NA  2013     2013     1       1     1         0
#>  2 2013-01-03    1.36e9  86400  2013     2013     1       1     1         0
#>  3 2013-01-04    1.36e9  86400  2013     2013     1       1     1         0
#>  4 2013-01-07    1.36e9 259200  2013     2013     1       1     1         0
#>  5 2013-01-08    1.36e9  86400  2013     2013     1       1     1         0
#>  6 2013-01-09    1.36e9  86400  2013     2013     1       1     1         0
#>  7 2013-01-10    1.36e9  86400  2013     2013     1       1     1         0
#>  8 2013-01-11    1.36e9  86400  2013     2013     1       1     1         0
#>  9 2013-01-14    1.36e9 259200  2013     2013     1       1     1         0
#> 10 2013-01-15    1.36e9  86400  2013     2013     1       1     1         0
#> # … with 998 more rows, and 20 more variables: month.lbl <ord>, day <int>,
#> #   hour <int>, minute <int>, second <int>, hour12 <int>, am.pm <int>,
#> #   wday <int>, wday.xts <int>, wday.lbl <ord>, mday <int>, qday <int>,
#> #   yday <int>, mweek <int>, week <int>, week.iso <int>, week2 <int>,
#> #   week3 <int>, week4 <int>, mday7 <int>
…
