Get holiday features from a time-series index — tk_get_holiday • timetk
…
step_holiday_signature() - Preprocessing and feature engineering steps for use with recipes

    Examples

library(tidyverse)
library(tidyquant)
library(timetk)

# Works with time-based tibbles
idx <- tk_make_timeseries("2017-01-01", "2017-12-31", by = "day")

# --- BASIC USAGE ----

tk_get_holiday_signature(idx)
#> # A tibble: 365 x 130
#>    index      exch_NYSE exch_LONDON exch_NERC exch_TSX exch_ZURICH locale_GB
#>    <date>         <dbl>       <dbl>     <dbl>    <dbl>       <dbl>     <dbl>
#>  1 2017-01-01         0           0         0        0           0         0
#>  2 2017-01-02         1           1         1        1           1         0
#>  3 2017-01-03         0           0         0        0           0         0
#>  4 2017-01-04         0           0         0        0           0         0
#>  5 2017-01-05         0           0         0        0           0         0
#>  6 2017-01-06         0           0         0        0           0         0
#>  7 2017-01-07         0           0         0        0           0         0
#>  8 2017-01-08         0           0         0        0           0         0
#>  9 2017-01-09         0           0         0        0           0         0
#> 10 2017-01-10         0           0         0        0           0         0
#> # … with 355 more rows, and 123 more variables: locale_JP <dbl>,
#> #   locale_US <dbl>, locale_World <dbl>, locale_CH <dbl>, locale_IT <dbl>,
#> #   locale_FR <dbl>, locale_CA <dbl>, locale_DE <dbl>, GB_MilleniumDay <dbl>,
#> #   JP_Gantan <dbl>, JP_NewYearsDay <dbl>, World_NewYearsDay <dbl>,
#> #   World_SolemnityOfMary <dbl>, US_NewYearsDay <dbl>, CH_BerchtoldsDay <dbl>,
#> #   JP_BankHolidayJan2 <dbl>, JP_BankHolidayJan3 <dbl>, World_Epiphany <dbl>,
#> #   IT_Epiphany <dbl>, JP_ComingOfAgeDay <dbl>, JP_SeijinNoHi <dbl>,
#> #   US_MLKingsBirthday <dbl>, US_InaugurationDay <dbl>,
#> #   World_PresentationOfLord <dbl>, JP_KenkokuKinenNoHi <dbl>,
…
# Filter using holiday patterns
# - Get New Years, Christmas and Thanksgiving Features in US
tk_get_holiday_signature(
    idx,
    holiday_pattern = "(US_NewYears)|(US_Christmas)|(US_Thanks)",
    locale_set      = "none",
    exchange_set    = "none")
#> # A tibble: 365 x 4
#>    index      US_NewYearsDay US_ThanksgivingDay US_ChristmasDay
#>    <date>              <dbl>              <dbl>           <dbl>
#>  1 2017-01-01              1                  0               0
#>  2 2017-01-02              0                  0               0
#>  3 2017-01-03              0                  0               0
#>  4 2017-01-04              0                  0               0
#>  5 2017-01-05              0                  0               0
#>  6 2017-01-06              0                  0               0
#>  7 2017-01-07              0                  0               0
#>  8 2017-01-08              0                  0               0
#>  9 2017-01-09              0                  0               0
#> 10 2017-01-10              0                  0               0
#> # … with 355 more rows

# ---- APPLYING FILTERS ----

# Filter with locale sets - Signals all holidays in a locale
tk_get_holiday_signature(
    idx,
    holiday_pattern = "$^", # Matches nothing on purpose
    locale_set      = "US",
    exchange_set    = "none")
#> # A tibble: 365 x 2
#>    index      locale_US
#>    <date>         <dbl>
#>  1 2017-01-01         1
#>  2 2017-01-02         0
#>  3 2017-01-03         0
#>  4 2017-01-04         0
#>  5 2017-01-05         0
#>  6 2017-01-06         0
#>  7 2017-01-07         0
#>  8 2017-01-08         0
#>  9 2017-01-09         0
#> 10 2017-01-10         0
#> # … with 355 more rows

# Filter with exchange sets - Signals Common Non-Business Days
tk_get_holiday_signature(
    idx,
    holiday_pattern = "$^", # Matches nothing on purpose
    locale_set      = "none",
    exchange_set    = "NYSE")
#> # A tibble: 365 x 2
#>    index      exch_NYSE
#>    <date>         <dbl>
#>  1 2017-01-01         0
#>  2 2017-01-02         1
#>  3 2017-01-03         0
#>  4 2017-01-04         0
#>  5 2017-01-05         0
#>  6 2017-01-06         0
#>  7 2017-01-07         0
#>  8 2017-01-08         0
#>  9 2017-01-09         0
#> 10 2017-01-10         0
#> # … with 355 more rows
…
