Group-wise Seasonality Data Preparation — tk_seasonal_diagnostics • timetk
…
The .value parameter respects transformations (e.g. .value = log(sales)).

    Examples

library(dplyr)
library(timetk)

# ---- GROUPED EXAMPLES ----

# Hourly Data
m4_hourly %>%
    group_by(id) %>%
    tk_seasonal_diagnostics(date, value)

#> # A tibble: 3,060 x 6
#> # Groups:   id [4]
#>    id    date                .value hour  wday.lbl  week 
#>    <fct> <dttm>               <dbl> <fct> <fct>     <fct>
#>  1 H10   2015-07-01 12:00:00    513 12    Wednesday 26   
#>  2 H10   2015-07-01 13:00:00    512 13    Wednesday 26   
#>  3 H10   2015-07-01 14:00:00    506 14    Wednesday 26   
#>  4 H10   2015-07-01 15:00:00    500 15    Wednesday 26   
#>  5 H10   2015-07-01 16:00:00    490 16    Wednesday 26   
#>  6 H10   2015-07-01 17:00:00    484 17    Wednesday 26   
#>  7 H10   2015-07-01 18:00:00    467 18    Wednesday 26   
#>  8 H10   2015-07-01 19:00:00    446 19    Wednesday 26   
#>  9 H10   2015-07-01 20:00:00    434 20    Wednesday 26   
#> 10 H10   2015-07-01 21:00:00    422 21    Wednesday 26   
#> # … with 3,050 more rows

# Monthly Data
m4_monthly %>%
    group_by(id) %>%
    tk_seasonal_diagnostics(date, value)

#> # A tibble: 1,574 x 6
#> # Groups:   id [4]
#>    id    date       .value month.lbl quarter year 
#>    <fct> <date>      <dbl> <fct>     <fct>   <fct>
#>  1 M1    1976-06-01   8000 June      2       1976 
#>  2 M1    1976-07-01   8350 July      3       1976 
#>  3 M1    1976-08-01   8570 August    3       1976 
#>  4 M1    1976-09-01   7700 September 3       1976 
#>  5 M1    1976-10-01   7080 October   4       1976 
#>  6 M1    1976-11-01   6520 November  4       1976 
#>  7 M1    1976-12-01   6070 December  4       1976 
#>  8 M1    1977-01-01   6650 January   1       1977 
#>  9 M1    1977-02-01   6830 February  1       1977 
#> 10 M1    1977-03-01   5710 March     1       1977 
#> # … with 1,564 more rows

# ---- TRANSFORMATION ----

m4_weekly %>%
    group_by(id) %>%
    tk_seasonal_diagnostics(date, log(value))

#> # A tibble: 2,295 x 7
#> # Groups:   id [4]
#>    id    date       .value week  month.lbl quarter year 
#>    <fct> <date>      <dbl> <fct> <fct>     <fct>   <fct>
#>  1 W10   1999-01-01   5.51 1     January   1       1999 
#>  2 W10   1999-01-08   5.40 2     January   1       1999 
#>  3 W10   1999-01-15   6.11 3     January   1       1999 
#>  4 W10   1999-01-22   6.11 4     January   1       1999 
#>  5 W10   1999-01-29   6.11 5     January   1       1999 
#>  6 W10   1999-02-05   6.11 6     February  1       1999 
#>  7 W10   1999-02-12   6.11 7     February  1       1999 
#>  8 W10   1999-02-19   6.11 8     February  1       1999 
#>  9 W10   1999-02-26   6.11 9     February  1       1999 
#> 10 W10   1999-03-05   6.11 10    March     1       1999 
#> # … with 2,285 more rows

# ---- CUSTOM FEATURE SELECTION ----

m4_hourly %>%
    group_by(id) %>%
    tk_seasonal_diagnostics(date, value, .feature_set = c("hour", "week"))

#> # A tibble: 3,060 x 5
#> # Groups:   id [4]
#>    id    date                .value hour  week 
#>    <fct> <dttm>               <dbl> <fct> <fct>
#>  1 H10   2015-07-01 12:00:00    513 12    26   
#>  2 H10   2015-07-01 13:00:00    512 13    26   
#>  3 H10   2015-07-01 14:00:00    506 14    26   
#>  4 H10   2015-07-01 15:00:00    500 15    26   
#>  5 H10   2015-07-01 16:00:00    490 16    26   
#>  6 H10   2015-07-01 17:00:00    484 17    26   
#>  7 H10   2015-07-01 18:00:00    467 18    26   
#>  8 H10   2015-07-01 19:00:00    446 19    26   
#>  9 H10   2015-07-01 20:00:00    434 20    26   
#> 10 H10   2015-07-01 21:00:00    422 21    26   
#> # … with 3,050 more rows
…
