Time Series Conversion • timetk
…
Prerequisites

Before we get started, load the following packages.

library(tidyverse)
library(timetk)

Data

We’ll use the “Q10” dataset - The first ID from a sample a quarterly datasets (see m4_quarterly) from the M4 Competition. The return structure is a tibble, which is not conducive to many of the popular time series analysis packages including quantmod, TTR, forecast and many others.

q10_quarterly <- m4_quarterly %>% filter(id == "Q10")
q10_quarterly

## # A tibble: 59 × 3
##    id    date       value
##    <fct> <date>     <dbl>
##  1 Q10   2000-01-01 2329 
##  2 Q10   2000-04-01 2350.
##  3 Q10   2000-07-01 2333.
##  4 Q10   2000-10-01 2382.
##  5 Q10   2001-01-01 2383.
##  6 Q10   2001-04-01 2405 
##  7 Q10   2001-07-01 2411 
##  8 Q10   2001-10-01 2428.
##  9 Q10   2002-01-01 2392.
## 10 Q10   2002-04-01 2418.
## # … with 49 more rows
…
class(timetk_index)

## [1] "Date"

Next, the tk_tbl() function has an argument timetk_idx also which can be used to select which index to return. First, we show conversion using the default index. Notice that the index returned is “regularized” meaning its actually a numeric index rather than a time-based index.

# Conversion back to tibble using the default index (regularized)
q10_quarterly_ts_timetk %>%
    tk_tbl(index_rename = "date", timetk_idx = FALSE)

## Warning: `type_convert()` only converts columns of type 'character'.
## - `df` has no columns of type 'character'

## # A tibble: 59 × 2
##    index     value
##    <yearqtr> <dbl>
##  1 2000 Q1   2329 
##  2 2000 Q2   2350.
##  3 2000 Q3   2333.
##  4 2000 Q4   2382.
##  5 2001 Q1   2383.
##  6 2001 Q2   2405 
##  7 2001 Q3   2411 
##  8 2001 Q4   2428.
##  9 2002 Q1   2392.
## 10 2002 Q2   2418.
## # … with 49 more rows

We can now get the original date index using the tk_tbl() argument timetk_idx = TRUE.

# Conversion back to tibble now using the timetk index (date / date-time)
q10_quarterly_timetk <- q10_quarterly_ts_timetk %>%
    tk_tbl(timetk_idx = TRUE) %>%
    rename(date = index)

## Warning: `type_convert()` only converts columns of type 'character'.
## - `df` has no columns of type 'character'

q10_quarterly_timetk

## # A tibble: 59 × 2
##    date       value
##    <date>     <dbl>
##  1 2000-01-01 2329 
##  2 2000-04-01 2350.
##  3 2000-07-01 2333.
##  4 2000-10-01 2382.
##  5 2001-01-01 2383.
##  6 2001-04-01 2405 
##  7 2001-07-01 2411 
##  8 2001-10-01 2428.
##  9 2002-01-01 2392.
## 10 2002-04-01 2418.
## # … with 49 more rows
…
## [1] TRUE

Conversion Methods

Using the q10_quarterly, we’ll go through the various conversion methods using tk_tbl, tk_xts, tk_zoo, tk_zooreg, and tk_ts.

From tbl

The starting point is the q10_quarterly. We will coerce this into xts, zoo, zooreg and ts classes.

# Start:
q10_quarterly

## # A tibble: 59 × 3
##    id    date       value
##    <fct> <date>     <dbl>
##  1 Q10   2000-01-01 2329 
##  2 Q10   2000-04-01 2350.
##  3 Q10   2000-07-01 2333.
##  4 Q10   2000-10-01 2382.
##  5 Q10   2001-01-01 2383.
##  6 Q10   2001-04-01 2405 
##  7 Q10   2001-07-01 2411 
##  8 Q10   2001-10-01 2428.
##  9 Q10   2002-01-01 2392.
## 10 Q10   2002-04-01 2418.
## # … with 49 more rows
…
Notice no loss of data going back to tbl.

# End
tk_tbl(q10_quarterly_xts)

## Warning: `type_convert()` only converts columns of type 'character'.
## - `df` has no columns of type 'character'

## # A tibble: 59 × 2
##    index      value
##    <date>     <dbl>
##  1 2000-01-01 2329 
##  2 2000-04-01 2350.
##  3 2000-07-01 2333.
##  4 2000-10-01 2382.
##  5 2001-01-01 2383.
##  6 2001-04-01 2405 
##  7 2001-07-01 2411 
##  8 2001-10-01 2428.
##  9 2002-01-01 2392.
## 10 2002-04-01 2418.
## # … with 49 more rows
…
Notice no loss of data going back to tbl.

# End
tk_tbl(q10_quarterly_zoo)

## Warning: `type_convert()` only converts columns of type 'character'.
## - `df` has no columns of type 'character'

## # A tibble: 59 × 2
##    index      value
##    <date>     <dbl>
##  1 2000-01-01 2329 
##  2 2000-04-01 2350.
##  3 2000-07-01 2333.
##  4 2000-10-01 2382.
##  5 2001-01-01 2383.
##  6 2001-04-01 2405 
##  7 2001-07-01 2411 
##  8 2001-10-01 2428.
##  9 2002-01-01 2392.
## 10 2002-04-01 2418.
## # … with 49 more rows
…
Notice that the index is a regularized numeric sequence by default.

# End - with default regularized index
tk_tbl(q10_quarterly_zooreg)

## Warning: `type_convert()` only converts columns of type 'character'.
## - `df` has no columns of type 'character'

## # A tibble: 59 × 2
##    index     value
##    <yearqtr> <dbl>
##  1 2000 Q1   2329 
##  2 2000 Q2   2350.
##  3 2000 Q3   2333.
##  4 2000 Q4   2382.
##  5 2001 Q1   2383.
##  6 2001 Q2   2405 
##  7 2001 Q3   2411 
##  8 2001 Q4   2428.
##  9 2002 Q1   2392.
## 10 2002 Q2   2418.
## # … with 49 more rows

With timetk_idx = TRUE the index is the original date sequence. The result is the original tbl that we started with!

# End - with timetk index that is the same as original time-based index
tk_tbl(q10_quarterly_zooreg, timetk_idx = TRUE)

## Warning: `type_convert()` only converts columns of type 'character'.
## - `df` has no columns of type 'character'

## # A tibble: 59 × 2
##    index      value
##    <date>     <dbl>
##  1 2000-01-01 2329 
##  2 2000-04-01 2350.
##  3 2000-07-01 2333.
##  4 2000-10-01 2382.
##  5 2001-01-01 2383.
##  6 2001-04-01 2405 
##  7 2001-07-01 2411 
##  8 2001-10-01 2428.
##  9 2002-01-01 2392.
## 10 2002-04-01 2418.
## # … with 49 more rows
…
Notice that the index is a regularized numeric sequence by default.

# End - with default regularized index
tk_tbl(q10_quarterly_ts)

## Warning: `type_convert()` only converts columns of type 'character'.
## - `df` has no columns of type 'character'

## # A tibble: 59 × 2
##    index     value
##    <yearqtr> <dbl>
##  1 2000 Q1   2329 
##  2 2000 Q2   2350.
##  3 2000 Q3   2333.
##  4 2000 Q4   2382.
##  5 2001 Q1   2383.
##  6 2001 Q2   2405 
##  7 2001 Q3   2411 
##  8 2001 Q4   2428.
##  9 2002 Q1   2392.
## 10 2002 Q2   2418.
## # … with 49 more rows

With timetk_idx = TRUE the index is the original date sequence. The result is the original tbl that we started with!

# End - with timetk index 
tk_tbl(q10_quarterly_ts, timetk_idx = TRUE)

## Warning: `type_convert()` only converts columns of type 'character'.
## - `df` has no columns of type 'character'

## # A tibble: 59 × 2
##    index      value
##    <date>     <dbl>
##  1 2000-01-01 2329 
##  2 2000-04-01 2350.
##  3 2000-07-01 2333.
##  4 2000-10-01 2382.
##  5 2001-01-01 2383.
##  6 2001-04-01 2405 
##  7 2001-07-01 2411 
##  8 2001-10-01 2428.
##  9 2002-01-01 2392.
## 10 2002-04-01 2418.
## # … with 49 more rows
…
If we toggle timetk_idx = TRUE during conversion to tbl using tk_tbl(), we get the index of dates rather than the regularized index in the returned tbl.

tk_tbl(q10_quarterly_ts, timetk_idx = TRUE)

## Warning: `type_convert()` only converts columns of type 'character'.
## - `df` has no columns of type 'character'

## # A tibble: 59 × 2
##    index      value
##    <date>     <dbl>
##  1 2000-01-01 2329 
##  2 2000-04-01 2350.
##  3 2000-07-01 2333.
##  4 2000-10-01 2382.
##  5 2001-01-01 2383.
##  6 2001-04-01 2405 
##  7 2001-07-01 2411 
##  8 2001-10-01 2428.
##  9 2002-01-01 2392.
## 10 2002-04-01 2418.
## # … with 49 more rows
…
Working with zoo::yearmon and zoo::yearqtr index

The zoo package has the yearmon and yearqtr classes for working with regularized monthly and quarterly data, respectively. The “timetk index” tracks the format during conversion. Here’s and example with yearqtr.

yearqtr_tbl <- q10_quarterly %>%
    mutate(date = zoo::as.yearqtr(date))
yearqtr_tbl

## # A tibble: 59 × 3
##    id    date      value
##    <fct> <yearqtr> <dbl>
##  1 Q10   2000 Q1   2329 
##  2 Q10   2000 Q2   2350.
##  3 Q10   2000 Q3   2333.
##  4 Q10   2000 Q4   2382.
##  5 Q10   2001 Q1   2383.
##  6 Q10   2001 Q2   2405 
##  7 Q10   2001 Q3   2411 
##  8 Q10   2001 Q4   2428.
##  9 Q10   2002 Q1   2392.
## 10 Q10   2002 Q2   2418.
## # … with 49 more rows
…
Coercing from ts to tbl using timetk_idx = TRUE shows that the original index was maintained through each of the conversion steps.

yearqtr_ts %>% tk_tbl(timetk_idx = TRUE)

## Warning: `type_convert()` only converts columns of type 'character'.
## - `df` has no columns of type 'character'

## # A tibble: 59 × 2
##    index     value
##    <yearqtr> <dbl>
##  1 2000 Q1   2329 
##  2 2000 Q2   2350.
##  3 2000 Q3   2333.
##  4 2000 Q4   2382.
##  5 2001 Q1   2383.
##  6 2001 Q2   2405 
##  7 2001 Q3   2411 
##  8 2001 Q4   2428.
##  9 2002 Q1   2392.
## 10 2002 Q2   2418.
## # … with 49 more rows
…
