What is the Time Series Signature? • timetk
…
library(tidyverse)
library(tidyquant) # Used for FANG dataset
library(timetk)

Data

We’ll use the Facebook stock prices from the FANG data set from tidyquant. These are the historical stock prices (open, high, low, close, volume, and adjusted) for the “FB” stock from 2013 through 2016.

data("FANG")

FB_tbl <- FANG %>% filter(symbol == "FB")
FB_tbl

## # A tibble: 1,008 x 8
##    symbol date        open  high   low close    volume adjusted
##    <chr>  <date>     <dbl> <dbl> <dbl> <dbl>     <dbl>    <dbl>
##  1 FB     2013-01-02  27.4  28.2  27.4  28    69846400     28  
##  2 FB     2013-01-03  27.9  28.5  27.6  27.8  63140600     27.8
##  3 FB     2013-01-04  28.0  28.9  27.8  28.8  72715400     28.8
##  4 FB     2013-01-07  28.7  29.8  28.6  29.4  83781800     29.4
##  5 FB     2013-01-08  29.5  29.6  28.9  29.1  45871300     29.1
##  6 FB     2013-01-09  29.7  30.6  29.5  30.6 104787700     30.6
##  7 FB     2013-01-10  30.6  31.5  30.3  31.3  95316400     31.3
##  8 FB     2013-01-11  31.3  32.0  31.1  31.7  89598000     31.7
##  9 FB     2013-01-14  32.1  32.2  30.6  31.0  98892800     31.0
## 10 FB     2013-01-15  30.6  31.7  29.9  30.1 173242600     30.1
## # … with 998 more rows

To simplify the tutorial, we will select only the “date” and “volume” columns. For the FB_vol_date data frame, we can see from the “date” column that the observations are daily beginning on the second day of 2013.

FB_vol_date <- FB_tbl %>% select(date, volume)
FB_vol_date

## # A tibble: 1,008 x 2
##    date          volume
##    <date>         <dbl>
##  1 2013-01-02  69846400
##  2 2013-01-03  63140600
##  3 2013-01-04  72715400
##  4 2013-01-07  83781800
##  5 2013-01-08  45871300
##  6 2013-01-09 104787700
##  7 2013-01-10  95316400
##  8 2013-01-11  89598000
##  9 2013-01-14  98892800
## 10 2013-01-15 173242600
## # … with 998 more rows
…
week.iso: The ISO week number of the year (Monday start).

week2: The modulus for bi-weekly frequency.

week3: The modulus for tri-weekly frequency.

week4: The modulus for quad-weekly frequency.

mday7: The integer division of day of the month by seven, which returns the first, second, third, … instance the day has appeared in the month. Values begin at 1. For example, the first Saturday in the month has mday7 = 1. The second has mday7 = 2.

# idx_date signature
tk_get_timeseries_signature(idx_date)

## # A tibble: 1,008 x 29
##    index       index.num   diff  year year.iso  half quarter month month.xts
##    <date>          <dbl>  <dbl> <int>    <int> <int>   <int> <int>     <int>
##  1 2013-01-02 1357084800     NA  2013     2013     1       1     1         0
##  2 2013-01-03 1357171200  86400  2013     2013     1       1     1         0
##  3 2013-01-04 1357257600  86400  2013     2013     1       1     1         0
##  4 2013-01-07 1357516800 259200  2013     2013     1       1     1         0
##  5 2013-01-08 1357603200  86400  2013     2013     1       1     1         0
##  6 2013-01-09 1357689600  86400  2013     2013     1       1     1         0
##  7 2013-01-10 1357776000  86400  2013     2013     1       1     1         0
##  8 2013-01-11 1357862400  86400  2013     2013     1       1     1         0
##  9 2013-01-14 1358121600 259200  2013     2013     1       1     1         0
## 10 2013-01-15 1358208000  86400  2013     2013     1       1     1         0
## # … with 998 more rows, and 20 more variables: month.lbl <ord>, day <int>,
## #   hour <int>, minute <int>, second <int>, hour12 <int>, am.pm <int>,
## #   wday <int>, wday.xts <int>, wday.lbl <ord>, mday <int>, qday <int>,
## #   yday <int>, mweek <int>, week <int>, week.iso <int>, week2 <int>,
## #   week3 <int>, week4 <int>, mday7 <int>

Augment Functions (Adding Many Features to a Data Frame)

It’s usually important to keep the index signature with the values (e.g. volume in our example). We can use an expedited approach with tk_augment_timeseries_signature(), which adds the signature to the end of the time series object.

# Augmenting a data frame
FB_vol_date_signature <- FB_vol_date %>% tk_augment_timeseries_signature(.date_var = date)
FB_vol_date_signature

## # A tibble: 1,008 x 30
##    date          volume  index.num   diff  year year.iso  half quarter month
##    <date>         <dbl>      <dbl>  <dbl> <int>    <int> <int>   <int> <int>
##  1 2013-01-02  69846400 1357084800     NA  2013     2013     1       1     1
##  2 2013-01-03  63140600 1357171200  86400  2013     2013     1       1     1
##  3 2013-01-04  72715400 1357257600  86400  2013     2013     1       1     1
##  4 2013-01-07  83781800 1357516800 259200  2013     2013     1       1     1
##  5 2013-01-08  45871300 1357603200  86400  2013     2013     1       1     1
##  6 2013-01-09 104787700 1357689600  86400  2013     2013     1       1     1
##  7 2013-01-10  95316400 1357776000  86400  2013     2013     1       1     1
##  8 2013-01-11  89598000 1357862400  86400  2013     2013     1       1     1
##  9 2013-01-14  98892800 1358121600 259200  2013     2013     1       1     1
## 10 2013-01-15 173242600 1358208000  86400  2013     2013     1       1     1
## # … with 998 more rows, and 21 more variables: month.xts <int>,
## #   month.lbl <ord>, day <int>, hour <int>, minute <int>, second <int>,
## #   hour12 <int>, am.pm <int>, wday <int>, wday.xts <int>, wday.lbl <ord>,
## #   mday <int>, qday <int>, yday <int>, mweek <int>, week <int>,
## #   week.iso <int>, week2 <int>, week3 <int>, week4 <int>, mday7 <int>
…
