Automatic Frequency and Trend Selection • timetk
…
Data

Daily Irregular Data

The daily stock prices of Facebook from 2013 to 2016 (courtesy of tidyquant). Note that trading days only occur on “business days” (non-weekends and non-business-holidays).

data(FANG)

FB_tbl <- FANG %>% filter(symbol == "FB")
FB_tbl

## # A tibble: 1,008 x 8
##    symbol date        open  high   low close    volume adjusted
##    <chr>  <date>     <dbl> <dbl> <dbl> <dbl>     <dbl>    <dbl>
##  1 FB     2013-01-02  27.4  28.2  27.4  28    69846400     28  
##  2 FB     2013-01-03  27.9  28.5  27.6  27.8  63140600     27.8
##  3 FB     2013-01-04  28.0  28.9  27.8  28.8  72715400     28.8
##  4 FB     2013-01-07  28.7  29.8  28.6  29.4  83781800     29.4
##  5 FB     2013-01-08  29.5  29.6  28.9  29.1  45871300     29.1
##  6 FB     2013-01-09  29.7  30.6  29.5  30.6 104787700     30.6
##  7 FB     2013-01-10  30.6  31.5  30.3  31.3  95316400     31.3
##  8 FB     2013-01-11  31.3  32.0  31.1  31.7  89598000     31.7
##  9 FB     2013-01-14  32.1  32.2  30.6  31.0  98892800     31.0
## 10 FB     2013-01-15  30.6  31.7  29.9  30.1 173242600     30.1
## # … with 998 more rows

Sub-Daily Data

Taylor’s Energy Demand data at a 30-minute timestamp interval.

taylor_30_min

## # A tibble: 4,032 x 2
##    date                value
##    <dttm>              <dbl>
##  1 2000-06-05 00:00:00 22262
##  2 2000-06-05 00:30:00 21756
##  3 2000-06-05 01:00:00 22247
##  4 2000-06-05 01:30:00 22759
##  5 2000-06-05 02:00:00 22549
##  6 2000-06-05 02:30:00 22313
##  7 2000-06-05 03:00:00 22128
##  8 2000-06-05 03:30:00 21860
##  9 2000-06-05 04:00:00 21751
## 10 2000-06-05 04:30:00 21336
## # … with 4,022 more rows
…
